^C:\USERS\AKRISTMANN\DESKTOP\GRAPHVIZ-CMAKE\LIB\GVC\GVC.C
/c /I"C:/Users/akristmann/Desktop/graphviz-cmake/lib/graph" /I"C:/Users/akristmann/Desktop/graphviz-cmake/lib/pathplan" /I"C:/Users/akristmann/Desktop/graphviz-cmake/lib/common" /I"C:/Users/akristmann/Desktop/graphviz-cmake/lib/gvc" /I"C:/Users/akristmann/Desktop/graphviz-cmake/lib/dotgen" /I"C:/Users/akristmann/Desktop/graphviz-cmake/lib/fdpgen" /I"C:/Users/akristmann/Desktop/graphviz-cmake/libltdl" /I"C:/Users/akristmann/Desktop/graphviz-cmake/lib/cdt" /I"C:/Users/akristmann/Desktop/graphviz-cmake/lib/xdot" /I"C:/Users/akristmann/Desktop/graphviz-cmake" /nologo /W3 /WX- /O2 /Oy- /D WIN32 /D _WINDOWS /D HAVE_CONFIG_H /D HAVE_SETMODE /D "CMAKE_INTDIR=\"Debug\"" /D gvc_EXPORTS /D _WINDLL /D _MBCS /Gm- /MD /GS /fp:precise /Zc:wchar_t /Zc:forScope /Fo"gvc.dir\Debug\\" /Fd"C:/Users/akristmann/Desktop/graphviz-cmake/BUILD/CMake/lib/gvc/Debug/gvc.pdb" /Gd /TC /analyze- /errorReport:prompt  /Zm1000 -g -gdwarf-2  C:\USERS\AKRISTMANN\DESKTOP\GRAPHVIZ-CMAKE\LIB\GVC\GVC.C
^C:\USERS\AKRISTMANN\DESKTOP\GRAPHVIZ-CMAKE\LIB\GVC\GVCONFIG.C
/c /I"C:/Users/akristmann/Desktop/graphviz-cmake/lib/graph" /I"C:/Users/akristmann/Desktop/graphviz-cmake/lib/pathplan" /I"C:/Users/akristmann/Desktop/graphviz-cmake/lib/common" /I"C:/Users/akristmann/Desktop/graphviz-cmake/lib/gvc" /I"C:/Users/akristmann/Desktop/graphviz-cmake/lib/dotgen" /I"C:/Users/akristmann/Desktop/graphviz-cmake/lib/fdpgen" /I"C:/Users/akristmann/Desktop/graphviz-cmake/libltdl" /I"C:/Users/akristmann/Desktop/graphviz-cmake/lib/cdt" /I"C:/Users/akristmann/Desktop/graphviz-cmake/lib/xdot" /I"C:/Users/akristmann/Desktop/graphviz-cmake" /nologo /W3 /WX- /O2 /Oy- /D WIN32 /D _WINDOWS /D HAVE_CONFIG_H /D HAVE_SETMODE /D "CMAKE_INTDIR=\"Debug\"" /D gvc_EXPORTS /D _WINDLL /D _MBCS /Gm- /MD /GS /fp:precise /Zc:wchar_t /Zc:forScope /Fo"gvc.dir\Debug\\" /Fd"C:/Users/akristmann/Desktop/graphviz-cmake/BUILD/CMake/lib/gvc/Debug/gvc.pdb" /Gd /TC /analyze- /errorReport:prompt  /Zm1000 -g -gdwarf-2  C:\USERS\AKRISTMANN\DESKTOP\GRAPHVIZ-CMAKE\LIB\GVC\GVCONFIG.C
^C:\USERS\AKRISTMANN\DESKTOP\GRAPHVIZ-CMAKE\LIB\GVC\GVCONTEXT.C
/c /I"C:/Users/akristmann/Desktop/graphviz-cmake/lib/graph" /I"C:/Users/akristmann/Desktop/graphviz-cmake/lib/pathplan" /I"C:/Users/akristmann/Desktop/graphviz-cmake/lib/common" /I"C:/Users/akristmann/Desktop/graphviz-cmake/lib/gvc" /I"C:/Users/akristmann/Desktop/graphviz-cmake/lib/dotgen" /I"C:/Users/akristmann/Desktop/graphviz-cmake/lib/fdpgen" /I"C:/Users/akristmann/Desktop/graphviz-cmake/libltdl" /I"C:/Users/akristmann/Desktop/graphviz-cmake/lib/cdt" /I"C:/Users/akristmann/Desktop/graphviz-cmake/lib/xdot" /I"C:/Users/akristmann/Desktop/graphviz-cmake" /nologo /W3 /WX- /O2 /Oy- /D WIN32 /D _WINDOWS /D HAVE_CONFIG_H /D HAVE_SETMODE /D "CMAKE_INTDIR=\"Debug\"" /D gvc_EXPORTS /D _WINDLL /D _MBCS /Gm- /MD /GS /fp:precise /Zc:wchar_t /Zc:forScope /Fo"gvc.dir\Debug\\" /Fd"C:/Users/akristmann/Desktop/graphviz-cmake/BUILD/CMake/lib/gvc/Debug/gvc.pdb" /Gd /TC /analyze- /errorReport:prompt  /Zm1000 -g -gdwarf-2  C:\USERS\AKRISTMANN\DESKTOP\GRAPHVIZ-CMAKE\LIB\GVC\GVCONTEXT.C
^C:\USERS\AKRISTMANN\DESKTOP\GRAPHVIZ-CMAKE\LIB\GVC\GVDEVICE.C
/c /I"C:/Users/akristmann/Desktop/graphviz-cmake/lib/graph" /I"C:/Users/akristmann/Desktop/graphviz-cmake/lib/pathplan" /I"C:/Users/akristmann/Desktop/graphviz-cmake/lib/common" /I"C:/Users/akristmann/Desktop/graphviz-cmake/lib/gvc" /I"C:/Users/akristmann/Desktop/graphviz-cmake/lib/dotgen" /I"C:/Users/akristmann/Desktop/graphviz-cmake/lib/fdpgen" /I"C:/Users/akristmann/Desktop/graphviz-cmake/libltdl" /I"C:/Users/akristmann/Desktop/graphviz-cmake/lib/cdt" /I"C:/Users/akristmann/Desktop/graphviz-cmake/lib/xdot" /I"C:/Users/akristmann/Desktop/graphviz-cmake" /nologo /W3 /WX- /O2 /Oy- /D WIN32 /D _WINDOWS /D HAVE_CONFIG_H /D HAVE_SETMODE /D "CMAKE_INTDIR=\"Debug\"" /D gvc_EXPORTS /D _WINDLL /D _MBCS /Gm- /MD /GS /fp:precise /Zc:wchar_t /Zc:forScope /Fo"gvc.dir\Debug\\" /Fd"C:/Users/akristmann/Desktop/graphviz-cmake/BUILD/CMake/lib/gvc/Debug/gvc.pdb" /Gd /TC /analyze- /errorReport:prompt  /Zm1000 -g -gdwarf-2  C:\USERS\AKRISTMANN\DESKTOP\GRAPHVIZ-CMAKE\LIB\GVC\GVDEVICE.C
^C:\USERS\AKRISTMANN\DESKTOP\GRAPHVIZ-CMAKE\LIB\GVC\GVEVENT.C
/c /I"C:/Users/akristmann/Desktop/graphviz-cmake/lib/graph" /I"C:/Users/akristmann/Desktop/graphviz-cmake/lib/pathplan" /I"C:/Users/akristmann/Desktop/graphviz-cmake/lib/common" /I"C:/Users/akristmann/Desktop/graphviz-cmake/lib/gvc" /I"C:/Users/akristmann/Desktop/graphviz-cmake/lib/dotgen" /I"C:/Users/akristmann/Desktop/graphviz-cmake/lib/fdpgen" /I"C:/Users/akristmann/Desktop/graphviz-cmake/libltdl" /I"C:/Users/akristmann/Desktop/graphviz-cmake/lib/cdt" /I"C:/Users/akristmann/Desktop/graphviz-cmake/lib/xdot" /I"C:/Users/akristmann/Desktop/graphviz-cmake" /nologo /W3 /WX- /O2 /Oy- /D WIN32 /D _WINDOWS /D HAVE_CONFIG_H /D HAVE_SETMODE /D "CMAKE_INTDIR=\"Debug\"" /D gvc_EXPORTS /D _WINDLL /D _MBCS /Gm- /MD /GS /fp:precise /Zc:wchar_t /Zc:forScope /Fo"gvc.dir\Debug\\" /Fd"C:/Users/akristmann/Desktop/graphviz-cmake/BUILD/CMake/lib/gvc/Debug/gvc.pdb" /Gd /TC /analyze- /errorReport:prompt  /Zm1000 -g -gdwarf-2  C:\USERS\AKRISTMANN\DESKTOP\GRAPHVIZ-CMAKE\LIB\GVC\GVEVENT.C
^C:\USERS\AKRISTMANN\DESKTOP\GRAPHVIZ-CMAKE\LIB\GVC\GVJOBS.C
/c /I"C:/Users/akristmann/Desktop/graphviz-cmake/lib/graph" /I"C:/Users/akristmann/Desktop/graphviz-cmake/lib/pathplan" /I"C:/Users/akristmann/Desktop/graphviz-cmake/lib/common" /I"C:/Users/akristmann/Desktop/graphviz-cmake/lib/gvc" /I"C:/Users/akristmann/Desktop/graphviz-cmake/lib/dotgen" /I"C:/Users/akristmann/Desktop/graphviz-cmake/lib/fdpgen" /I"C:/Users/akristmann/Desktop/graphviz-cmake/libltdl" /I"C:/Users/akristmann/Desktop/graphviz-cmake/lib/cdt" /I"C:/Users/akristmann/Desktop/graphviz-cmake/lib/xdot" /I"C:/Users/akristmann/Desktop/graphviz-cmake" /nologo /W3 /WX- /O2 /Oy- /D WIN32 /D _WINDOWS /D HAVE_CONFIG_H /D HAVE_SETMODE /D "CMAKE_INTDIR=\"Debug\"" /D gvc_EXPORTS /D _WINDLL /D _MBCS /Gm- /MD /GS /fp:precise /Zc:wchar_t /Zc:forScope /Fo"gvc.dir\Debug\\" /Fd"C:/Users/akristmann/Desktop/graphviz-cmake/BUILD/CMake/lib/gvc/Debug/gvc.pdb" /Gd /TC /analyze- /errorReport:prompt  /Zm1000 -g -gdwarf-2  C:\USERS\AKRISTMANN\DESKTOP\GRAPHVIZ-CMAKE\LIB\GVC\GVJOBS.C
^C:\USERS\AKRISTMANN\DESKTOP\GRAPHVIZ-CMAKE\LIB\GVC\GVLAYOUT.C
/c /I"C:/Users/akristmann/Desktop/graphviz-cmake/lib/graph" /I"C:/Users/akristmann/Desktop/graphviz-cmake/lib/pathplan" /I"C:/Users/akristmann/Desktop/graphviz-cmake/lib/common" /I"C:/Users/akristmann/Desktop/graphviz-cmake/lib/gvc" /I"C:/Users/akristmann/Desktop/graphviz-cmake/lib/dotgen" /I"C:/Users/akristmann/Desktop/graphviz-cmake/lib/fdpgen" /I"C:/Users/akristmann/Desktop/graphviz-cmake/libltdl" /I"C:/Users/akristmann/Desktop/graphviz-cmake/lib/cdt" /I"C:/Users/akristmann/Desktop/graphviz-cmake/lib/xdot" /I"C:/Users/akristmann/Desktop/graphviz-cmake" /nologo /W3 /WX- /O2 /Oy- /D WIN32 /D _WINDOWS /D HAVE_CONFIG_H /D HAVE_SETMODE /D "CMAKE_INTDIR=\"Debug\"" /D gvc_EXPORTS /D _WINDLL /D _MBCS /Gm- /MD /GS /fp:precise /Zc:wchar_t /Zc:forScope /Fo"gvc.dir\Debug\\" /Fd"C:/Users/akristmann/Desktop/graphviz-cmake/BUILD/CMake/lib/gvc/Debug/gvc.pdb" /Gd /TC /analyze- /errorReport:prompt  /Zm1000 -g -gdwarf-2  C:\USERS\AKRISTMANN\DESKTOP\GRAPHVIZ-CMAKE\LIB\GVC\GVLAYOUT.C
^C:\USERS\AKRISTMANN\DESKTOP\GRAPHVIZ-CMAKE\LIB\GVC\GVLOADIMAGE.C
/c /I"C:/Users/akristmann/Desktop/graphviz-cmake/lib/graph" /I"C:/Users/akristmann/Desktop/graphviz-cmake/lib/pathplan" /I"C:/Users/akristmann/Desktop/graphviz-cmake/lib/common" /I"C:/Users/akristmann/Desktop/graphviz-cmake/lib/gvc" /I"C:/Users/akristmann/Desktop/graphviz-cmake/lib/dotgen" /I"C:/Users/akristmann/Desktop/graphviz-cmake/lib/fdpgen" /I"C:/Users/akristmann/Desktop/graphviz-cmake/libltdl" /I"C:/Users/akristmann/Desktop/graphviz-cmake/lib/cdt" /I"C:/Users/akristmann/Desktop/graphviz-cmake/lib/xdot" /I"C:/Users/akristmann/Desktop/graphviz-cmake" /nologo /W3 /WX- /O2 /Oy- /D WIN32 /D _WINDOWS /D HAVE_CONFIG_H /D HAVE_SETMODE /D "CMAKE_INTDIR=\"Debug\"" /D gvc_EXPORTS /D _WINDLL /D _MBCS /Gm- /MD /GS /fp:precise /Zc:wchar_t /Zc:forScope /Fo"gvc.dir\Debug\\" /Fd"C:/Users/akristmann/Desktop/graphviz-cmake/BUILD/CMake/lib/gvc/Debug/gvc.pdb" /Gd /TC /analyze- /errorReport:prompt  /Zm1000 -g -gdwarf-2  C:\USERS\AKRISTMANN\DESKTOP\GRAPHVIZ-CMAKE\LIB\GVC\GVLOADIMAGE.C
^C:\USERS\AKRISTMANN\DESKTOP\GRAPHVIZ-CMAKE\LIB\GVC\GVPLUGIN.C
/c /I"C:/Users/akristmann/Desktop/graphviz-cmake/lib/graph" /I"C:/Users/akristmann/Desktop/graphviz-cmake/lib/pathplan" /I"C:/Users/akristmann/Desktop/graphviz-cmake/lib/common" /I"C:/Users/akristmann/Desktop/graphviz-cmake/lib/gvc" /I"C:/Users/akristmann/Desktop/graphviz-cmake/lib/dotgen" /I"C:/Users/akristmann/Desktop/graphviz-cmake/lib/fdpgen" /I"C:/Users/akristmann/Desktop/graphviz-cmake/libltdl" /I"C:/Users/akristmann/Desktop/graphviz-cmake/lib/cdt" /I"C:/Users/akristmann/Desktop/graphviz-cmake/lib/xdot" /I"C:/Users/akristmann/Desktop/graphviz-cmake" /nologo /W3 /WX- /O2 /Oy- /D WIN32 /D _WINDOWS /D HAVE_CONFIG_H /D HAVE_SETMODE /D "CMAKE_INTDIR=\"Debug\"" /D gvc_EXPORTS /D _WINDLL /D _MBCS /Gm- /MD /GS /fp:precise /Zc:wchar_t /Zc:forScope /Fo"gvc.dir\Debug\\" /Fd"C:/Users/akristmann/Desktop/graphviz-cmake/BUILD/CMake/lib/gvc/Debug/gvc.pdb" /Gd /TC /analyze- /errorReport:prompt  /Zm1000 -g -gdwarf-2  C:\USERS\AKRISTMANN\DESKTOP\GRAPHVIZ-CMAKE\LIB\GVC\GVPLUGIN.C
^C:\USERS\AKRISTMANN\DESKTOP\GRAPHVIZ-CMAKE\LIB\GVC\GVRENDER.C
/c /I"C:/Users/akristmann/Desktop/graphviz-cmake/lib/graph" /I"C:/Users/akristmann/Desktop/graphviz-cmake/lib/pathplan" /I"C:/Users/akristmann/Desktop/graphviz-cmake/lib/common" /I"C:/Users/akristmann/Desktop/graphviz-cmake/lib/gvc" /I"C:/Users/akristmann/Desktop/graphviz-cmake/lib/dotgen" /I"C:/Users/akristmann/Desktop/graphviz-cmake/lib/fdpgen" /I"C:/Users/akristmann/Desktop/graphviz-cmake/libltdl" /I"C:/Users/akristmann/Desktop/graphviz-cmake/lib/cdt" /I"C:/Users/akristmann/Desktop/graphviz-cmake/lib/xdot" /I"C:/Users/akristmann/Desktop/graphviz-cmake" /nologo /W3 /WX- /O2 /Oy- /D WIN32 /D _WINDOWS /D HAVE_CONFIG_H /D HAVE_SETMODE /D "CMAKE_INTDIR=\"Debug\"" /D gvc_EXPORTS /D _WINDLL /D _MBCS /Gm- /MD /GS /fp:precise /Zc:wchar_t /Zc:forScope /Fo"gvc.dir\Debug\\" /Fd"C:/Users/akristmann/Desktop/graphviz-cmake/BUILD/CMake/lib/gvc/Debug/gvc.pdb" /Gd /TC /analyze- /errorReport:prompt  /Zm1000 -g -gdwarf-2  C:\USERS\AKRISTMANN\DESKTOP\GRAPHVIZ-CMAKE\LIB\GVC\GVRENDER.C
^C:\USERS\AKRISTMANN\DESKTOP\GRAPHVIZ-CMAKE\LIB\GVC\GVTEXTLAYOUT.C
/c /I"C:/Users/akristmann/Desktop/graphviz-cmake/lib/graph" /I"C:/Users/akristmann/Desktop/graphviz-cmake/lib/pathplan" /I"C:/Users/akristmann/Desktop/graphviz-cmake/lib/common" /I"C:/Users/akristmann/Desktop/graphviz-cmake/lib/gvc" /I"C:/Users/akristmann/Desktop/graphviz-cmake/lib/dotgen" /I"C:/Users/akristmann/Desktop/graphviz-cmake/lib/fdpgen" /I"C:/Users/akristmann/Desktop/graphviz-cmake/libltdl" /I"C:/Users/akristmann/Desktop/graphviz-cmake/lib/cdt" /I"C:/Users/akristmann/Desktop/graphviz-cmake/lib/xdot" /I"C:/Users/akristmann/Desktop/graphviz-cmake" /nologo /W3 /WX- /O2 /Oy- /D WIN32 /D _WINDOWS /D HAVE_CONFIG_H /D HAVE_SETMODE /D "CMAKE_INTDIR=\"Debug\"" /D gvc_EXPORTS /D _WINDLL /D _MBCS /Gm- /MD /GS /fp:precise /Zc:wchar_t /Zc:forScope /Fo"gvc.dir\Debug\\" /Fd"C:/Users/akristmann/Desktop/graphviz-cmake/BUILD/CMake/lib/gvc/Debug/gvc.pdb" /Gd /TC /analyze- /errorReport:prompt  /Zm1000 -g -gdwarf-2  C:\USERS\AKRISTMANN\DESKTOP\GRAPHVIZ-CMAKE\LIB\GVC\GVTEXTLAYOUT.C
^C:\USERS\AKRISTMANN\DESKTOP\GRAPHVIZ-CMAKE\LIB\GVC\GVUSERSHAPE.C
/c /I"C:/Users/akristmann/Desktop/graphviz-cmake/lib/graph" /I"C:/Users/akristmann/Desktop/graphviz-cmake/lib/pathplan" /I"C:/Users/akristmann/Desktop/graphviz-cmake/lib/common" /I"C:/Users/akristmann/Desktop/graphviz-cmake/lib/gvc" /I"C:/Users/akristmann/Desktop/graphviz-cmake/lib/dotgen" /I"C:/Users/akristmann/Desktop/graphviz-cmake/lib/fdpgen" /I"C:/Users/akristmann/Desktop/graphviz-cmake/libltdl" /I"C:/Users/akristmann/Desktop/graphviz-cmake/lib/cdt" /I"C:/Users/akristmann/Desktop/graphviz-cmake/lib/xdot" /I"C:/Users/akristmann/Desktop/graphviz-cmake" /nologo /W3 /WX- /O2 /Oy- /D WIN32 /D _WINDOWS /D HAVE_CONFIG_H /D HAVE_SETMODE /D "CMAKE_INTDIR=\"Debug\"" /D gvc_EXPORTS /D _WINDLL /D _MBCS /Gm- /MD /GS /fp:precise /Zc:wchar_t /Zc:forScope /Fo"gvc.dir\Debug\\" /Fd"C:/Users/akristmann/Desktop/graphviz-cmake/BUILD/CMake/lib/gvc/Debug/gvc.pdb" /Gd /TC /analyze- /errorReport:prompt  /Zm1000 -g -gdwarf-2  C:\USERS\AKRISTMANN\DESKTOP\GRAPHVIZ-CMAKE\LIB\GVC\GVUSERSHAPE.C
