^C:\USERS\AKRISTMANN\DESKTOP\GRAPHVIZ-CMAKE\PLUGIN\CORE\GVLOADIMAGE_CORE.C
/c /I"C:/Users/akristmann/Desktop/graphviz-cmake/lib/graph" /I"C:/Users/akristmann/Desktop/graphviz-cmake/lib/pathplan" /I"C:/Users/akristmann/Desktop/graphviz-cmake/lib/common" /I"C:/Users/akristmann/Desktop/graphviz-cmake/lib/gvc" /I"C:/Users/akristmann/Desktop/graphviz-cmake/lib/dotgen" /I"C:/Users/akristmann/Desktop/graphviz-cmake/lib/fdpgen" /I"C:/Users/akristmann/Desktop/graphviz-cmake/libltdl" /I"C:/Users/akristmann/Desktop/graphviz-cmake/lib/cdt" /I"C:/Users/akristmann/Desktop/graphviz-cmake/lib/xdot" /I"C:/Users/akristmann/Desktop/graphviz-cmake" /nologo /W3 /WX- /O2 /Oy- /D WIN32 /D _WINDOWS /D HAVE_CONFIG_H /D HAVE_SETMODE /D "CMAKE_INTDIR=\"Debug\"" /D _MBCS /Gm- /MD /GS /fp:precise /Zc:wchar_t /Zc:forScope /Fo"graphviz_plugin_core.dir\Debug\\" /Fd"C:/Users/akristmann/Desktop/graphviz-cmake/BUILD/CMake/plugin/core/Debug/graphviz_plugin_core.pdb" /Gd /TC /analyze- /errorReport:prompt  /Zm1000 -g -gdwarf-2  C:\USERS\AKRISTMANN\DESKTOP\GRAPHVIZ-CMAKE\PLUGIN\CORE\GVLOADIMAGE_CORE.C
^C:\USERS\AKRISTMANN\DESKTOP\GRAPHVIZ-CMAKE\PLUGIN\CORE\GVPLUGIN_CORE.C
/c /I"C:/Users/akristmann/Desktop/graphviz-cmake/lib/graph" /I"C:/Users/akristmann/Desktop/graphviz-cmake/lib/pathplan" /I"C:/Users/akristmann/Desktop/graphviz-cmake/lib/common" /I"C:/Users/akristmann/Desktop/graphviz-cmake/lib/gvc" /I"C:/Users/akristmann/Desktop/graphviz-cmake/lib/dotgen" /I"C:/Users/akristmann/Desktop/graphviz-cmake/lib/fdpgen" /I"C:/Users/akristmann/Desktop/graphviz-cmake/libltdl" /I"C:/Users/akristmann/Desktop/graphviz-cmake/lib/cdt" /I"C:/Users/akristmann/Desktop/graphviz-cmake/lib/xdot" /I"C:/Users/akristmann/Desktop/graphviz-cmake" /nologo /W3 /WX- /O2 /Oy- /D WIN32 /D _WINDOWS /D HAVE_CONFIG_H /D HAVE_SETMODE /D "CMAKE_INTDIR=\"Debug\"" /D _MBCS /Gm- /MD /GS /fp:precise /Zc:wchar_t /Zc:forScope /Fo"graphviz_plugin_core.dir\Debug\\" /Fd"C:/Users/akristmann/Desktop/graphviz-cmake/BUILD/CMake/plugin/core/Debug/graphviz_plugin_core.pdb" /Gd /TC /analyze- /errorReport:prompt  /Zm1000 -g -gdwarf-2  C:\USERS\AKRISTMANN\DESKTOP\GRAPHVIZ-CMAKE\PLUGIN\CORE\GVPLUGIN_CORE.C
^C:\USERS\AKRISTMANN\DESKTOP\GRAPHVIZ-CMAKE\PLUGIN\CORE\GVRENDER_CORE_DOT.C
/c /I"C:/Users/akristmann/Desktop/graphviz-cmake/lib/graph" /I"C:/Users/akristmann/Desktop/graphviz-cmake/lib/pathplan" /I"C:/Users/akristmann/Desktop/graphviz-cmake/lib/common" /I"C:/Users/akristmann/Desktop/graphviz-cmake/lib/gvc" /I"C:/Users/akristmann/Desktop/graphviz-cmake/lib/dotgen" /I"C:/Users/akristmann/Desktop/graphviz-cmake/lib/fdpgen" /I"C:/Users/akristmann/Desktop/graphviz-cmake/libltdl" /I"C:/Users/akristmann/Desktop/graphviz-cmake/lib/cdt" /I"C:/Users/akristmann/Desktop/graphviz-cmake/lib/xdot" /I"C:/Users/akristmann/Desktop/graphviz-cmake" /nologo /W3 /WX- /O2 /Oy- /D WIN32 /D _WINDOWS /D HAVE_CONFIG_H /D HAVE_SETMODE /D "CMAKE_INTDIR=\"Debug\"" /D _MBCS /Gm- /MD /GS /fp:precise /Zc:wchar_t /Zc:forScope /Fo"graphviz_plugin_core.dir\Debug\\" /Fd"C:/Users/akristmann/Desktop/graphviz-cmake/BUILD/CMake/plugin/core/Debug/graphviz_plugin_core.pdb" /Gd /TC /analyze- /errorReport:prompt  /Zm1000 -g -gdwarf-2  C:\USERS\AKRISTMANN\DESKTOP\GRAPHVIZ-CMAKE\PLUGIN\CORE\GVRENDER_CORE_DOT.C
^C:\USERS\AKRISTMANN\DESKTOP\GRAPHVIZ-CMAKE\PLUGIN\CORE\GVRENDER_CORE_FIG.C
/c /I"C:/Users/akristmann/Desktop/graphviz-cmake/lib/graph" /I"C:/Users/akristmann/Desktop/graphviz-cmake/lib/pathplan" /I"C:/Users/akristmann/Desktop/graphviz-cmake/lib/common" /I"C:/Users/akristmann/Desktop/graphviz-cmake/lib/gvc" /I"C:/Users/akristmann/Desktop/graphviz-cmake/lib/dotgen" /I"C:/Users/akristmann/Desktop/graphviz-cmake/lib/fdpgen" /I"C:/Users/akristmann/Desktop/graphviz-cmake/libltdl" /I"C:/Users/akristmann/Desktop/graphviz-cmake/lib/cdt" /I"C:/Users/akristmann/Desktop/graphviz-cmake/lib/xdot" /I"C:/Users/akristmann/Desktop/graphviz-cmake" /nologo /W3 /WX- /O2 /Oy- /D WIN32 /D _WINDOWS /D HAVE_CONFIG_H /D HAVE_SETMODE /D "CMAKE_INTDIR=\"Debug\"" /D _MBCS /Gm- /MD /GS /fp:precise /Zc:wchar_t /Zc:forScope /Fo"graphviz_plugin_core.dir\Debug\\" /Fd"C:/Users/akristmann/Desktop/graphviz-cmake/BUILD/CMake/plugin/core/Debug/graphviz_plugin_core.pdb" /Gd /TC /analyze- /errorReport:prompt  /Zm1000 -g -gdwarf-2  C:\USERS\AKRISTMANN\DESKTOP\GRAPHVIZ-CMAKE\PLUGIN\CORE\GVRENDER_CORE_FIG.C
^C:\USERS\AKRISTMANN\DESKTOP\GRAPHVIZ-CMAKE\PLUGIN\CORE\GVRENDER_CORE_MAP.C
/c /I"C:/Users/akristmann/Desktop/graphviz-cmake/lib/graph" /I"C:/Users/akristmann/Desktop/graphviz-cmake/lib/pathplan" /I"C:/Users/akristmann/Desktop/graphviz-cmake/lib/common" /I"C:/Users/akristmann/Desktop/graphviz-cmake/lib/gvc" /I"C:/Users/akristmann/Desktop/graphviz-cmake/lib/dotgen" /I"C:/Users/akristmann/Desktop/graphviz-cmake/lib/fdpgen" /I"C:/Users/akristmann/Desktop/graphviz-cmake/libltdl" /I"C:/Users/akristmann/Desktop/graphviz-cmake/lib/cdt" /I"C:/Users/akristmann/Desktop/graphviz-cmake/lib/xdot" /I"C:/Users/akristmann/Desktop/graphviz-cmake" /nologo /W3 /WX- /O2 /Oy- /D WIN32 /D _WINDOWS /D HAVE_CONFIG_H /D HAVE_SETMODE /D "CMAKE_INTDIR=\"Debug\"" /D _MBCS /Gm- /MD /GS /fp:precise /Zc:wchar_t /Zc:forScope /Fo"graphviz_plugin_core.dir\Debug\\" /Fd"C:/Users/akristmann/Desktop/graphviz-cmake/BUILD/CMake/plugin/core/Debug/graphviz_plugin_core.pdb" /Gd /TC /analyze- /errorReport:prompt  /Zm1000 -g -gdwarf-2  C:\USERS\AKRISTMANN\DESKTOP\GRAPHVIZ-CMAKE\PLUGIN\CORE\GVRENDER_CORE_MAP.C
^C:\USERS\AKRISTMANN\DESKTOP\GRAPHVIZ-CMAKE\PLUGIN\CORE\GVRENDER_CORE_PS.C
/c /I"C:/Users/akristmann/Desktop/graphviz-cmake/lib/graph" /I"C:/Users/akristmann/Desktop/graphviz-cmake/lib/pathplan" /I"C:/Users/akristmann/Desktop/graphviz-cmake/lib/common" /I"C:/Users/akristmann/Desktop/graphviz-cmake/lib/gvc" /I"C:/Users/akristmann/Desktop/graphviz-cmake/lib/dotgen" /I"C:/Users/akristmann/Desktop/graphviz-cmake/lib/fdpgen" /I"C:/Users/akristmann/Desktop/graphviz-cmake/libltdl" /I"C:/Users/akristmann/Desktop/graphviz-cmake/lib/cdt" /I"C:/Users/akristmann/Desktop/graphviz-cmake/lib/xdot" /I"C:/Users/akristmann/Desktop/graphviz-cmake" /nologo /W3 /WX- /O2 /Oy- /D WIN32 /D _WINDOWS /D HAVE_CONFIG_H /D HAVE_SETMODE /D "CMAKE_INTDIR=\"Debug\"" /D _MBCS /Gm- /MD /GS /fp:precise /Zc:wchar_t /Zc:forScope /Fo"graphviz_plugin_core.dir\Debug\\" /Fd"C:/Users/akristmann/Desktop/graphviz-cmake/BUILD/CMake/plugin/core/Debug/graphviz_plugin_core.pdb" /Gd /TC /analyze- /errorReport:prompt  /Zm1000 -g -gdwarf-2  C:\USERS\AKRISTMANN\DESKTOP\GRAPHVIZ-CMAKE\PLUGIN\CORE\GVRENDER_CORE_PS.C
^C:\USERS\AKRISTMANN\DESKTOP\GRAPHVIZ-CMAKE\PLUGIN\CORE\GVRENDER_CORE_SVG.C
/c /I"C:/Users/akristmann/Desktop/graphviz-cmake/lib/graph" /I"C:/Users/akristmann/Desktop/graphviz-cmake/lib/pathplan" /I"C:/Users/akristmann/Desktop/graphviz-cmake/lib/common" /I"C:/Users/akristmann/Desktop/graphviz-cmake/lib/gvc" /I"C:/Users/akristmann/Desktop/graphviz-cmake/lib/dotgen" /I"C:/Users/akristmann/Desktop/graphviz-cmake/lib/fdpgen" /I"C:/Users/akristmann/Desktop/graphviz-cmake/libltdl" /I"C:/Users/akristmann/Desktop/graphviz-cmake/lib/cdt" /I"C:/Users/akristmann/Desktop/graphviz-cmake/lib/xdot" /I"C:/Users/akristmann/Desktop/graphviz-cmake" /nologo /W3 /WX- /O2 /Oy- /D WIN32 /D _WINDOWS /D HAVE_CONFIG_H /D HAVE_SETMODE /D "CMAKE_INTDIR=\"Debug\"" /D _MBCS /Gm- /MD /GS /fp:precise /Zc:wchar_t /Zc:forScope /Fo"graphviz_plugin_core.dir\Debug\\" /Fd"C:/Users/akristmann/Desktop/graphviz-cmake/BUILD/CMake/plugin/core/Debug/graphviz_plugin_core.pdb" /Gd /TC /analyze- /errorReport:prompt  /Zm1000 -g -gdwarf-2  C:\USERS\AKRISTMANN\DESKTOP\GRAPHVIZ-CMAKE\PLUGIN\CORE\GVRENDER_CORE_SVG.C
^C:\USERS\AKRISTMANN\DESKTOP\GRAPHVIZ-CMAKE\PLUGIN\CORE\GVRENDER_CORE_TK.C
/c /I"C:/Users/akristmann/Desktop/graphviz-cmake/lib/graph" /I"C:/Users/akristmann/Desktop/graphviz-cmake/lib/pathplan" /I"C:/Users/akristmann/Desktop/graphviz-cmake/lib/common" /I"C:/Users/akristmann/Desktop/graphviz-cmake/lib/gvc" /I"C:/Users/akristmann/Desktop/graphviz-cmake/lib/dotgen" /I"C:/Users/akristmann/Desktop/graphviz-cmake/lib/fdpgen" /I"C:/Users/akristmann/Desktop/graphviz-cmake/libltdl" /I"C:/Users/akristmann/Desktop/graphviz-cmake/lib/cdt" /I"C:/Users/akristmann/Desktop/graphviz-cmake/lib/xdot" /I"C:/Users/akristmann/Desktop/graphviz-cmake" /nologo /W3 /WX- /O2 /Oy- /D WIN32 /D _WINDOWS /D HAVE_CONFIG_H /D HAVE_SETMODE /D "CMAKE_INTDIR=\"Debug\"" /D _MBCS /Gm- /MD /GS /fp:precise /Zc:wchar_t /Zc:forScope /Fo"graphviz_plugin_core.dir\Debug\\" /Fd"C:/Users/akristmann/Desktop/graphviz-cmake/BUILD/CMake/plugin/core/Debug/graphviz_plugin_core.pdb" /Gd /TC /analyze- /errorReport:prompt  /Zm1000 -g -gdwarf-2  C:\USERS\AKRISTMANN\DESKTOP\GRAPHVIZ-CMAKE\PLUGIN\CORE\GVRENDER_CORE_TK.C
^C:\USERS\AKRISTMANN\DESKTOP\GRAPHVIZ-CMAKE\PLUGIN\CORE\GVRENDER_CORE_VML.C
/c /I"C:/Users/akristmann/Desktop/graphviz-cmake/lib/graph" /I"C:/Users/akristmann/Desktop/graphviz-cmake/lib/pathplan" /I"C:/Users/akristmann/Desktop/graphviz-cmake/lib/common" /I"C:/Users/akristmann/Desktop/graphviz-cmake/lib/gvc" /I"C:/Users/akristmann/Desktop/graphviz-cmake/lib/dotgen" /I"C:/Users/akristmann/Desktop/graphviz-cmake/lib/fdpgen" /I"C:/Users/akristmann/Desktop/graphviz-cmake/libltdl" /I"C:/Users/akristmann/Desktop/graphviz-cmake/lib/cdt" /I"C:/Users/akristmann/Desktop/graphviz-cmake/lib/xdot" /I"C:/Users/akristmann/Desktop/graphviz-cmake" /nologo /W3 /WX- /O2 /Oy- /D WIN32 /D _WINDOWS /D HAVE_CONFIG_H /D HAVE_SETMODE /D "CMAKE_INTDIR=\"Debug\"" /D _MBCS /Gm- /MD /GS /fp:precise /Zc:wchar_t /Zc:forScope /Fo"graphviz_plugin_core.dir\Debug\\" /Fd"C:/Users/akristmann/Desktop/graphviz-cmake/BUILD/CMake/plugin/core/Debug/graphviz_plugin_core.pdb" /Gd /TC /analyze- /errorReport:prompt  /Zm1000 -g -gdwarf-2  C:\USERS\AKRISTMANN\DESKTOP\GRAPHVIZ-CMAKE\PLUGIN\CORE\GVRENDER_CORE_VML.C
