^C:\USERS\AKRISTMANN\DESKTOP\GRAPHVIZ-CMAKE\PLUGIN\NEATO_LAYOUT\GVLAYOUT_NEATO_LAYOUT.C
C:\USERS\AKRISTMANN\DESKTOP\GRAPHVIZ-CMAKE\CONFIG.H
D:\PROGRAMME\VISUAL STUDIO 2010\VC\INCLUDE\STDIO.H
D:\PROGRAMME\VISUAL STUDIO 2010\VC\INCLUDE\CRTDEFS.H
D:\PROGRAMME\VISUAL STUDIO 2010\VC\INCLUDE\SAL.H
D:\PROGRAMME\VISUAL STUDIO 2010\VC\INCLUDE\CODEANALYSIS\SOURCEANNOTATIONS.H
D:\PROGRAMME\VISUAL STUDIO 2010\VC\INCLUDE\VADEFS.H
D:\PROGRAMME\VISUAL STUDIO 2010\VC\INCLUDE\SWPRINTF.INL
C:\USERS\AKRISTMANN\DESKTOP\GRAPHVIZ-CMAKE\LIB\GVC\GVPLUGIN_LAYOUT.H
C:\USERS\AKRISTMANN\DESKTOP\GRAPHVIZ-CMAKE\LIB\COMMON\TYPES.H
D:\PROGRAMME\VISUAL STUDIO 2010\VC\INCLUDE\ASSERT.H
D:\PROGRAMME\VISUAL STUDIO 2010\VC\INCLUDE\SIGNAL.H
C:\USERS\AKRISTMANN\DESKTOP\GRAPHVIZ-CMAKE\LIB\COMMON\GEOM.H
C:\USERS\AKRISTMANN\DESKTOP\GRAPHVIZ-CMAKE\LIB\COMMON\ARITH.H
D:\PROGRAMME\VISUAL STUDIO 2010\VC\INCLUDE\LIMITS.H
D:\PROGRAMME\VISUAL STUDIO 2010\VC\INCLUDE\MATH.H
C:\USERS\AKRISTMANN\DESKTOP\GRAPHVIZ-CMAKE\LIB\GVC\GVCEXT.H
C:\USERS\AKRISTMANN\DESKTOP\GRAPHVIZ-CMAKE\LIB\PATHPLAN\PATHGEOM.H
C:\USERS\AKRISTMANN\DESKTOP\GRAPHVIZ-CMAKE\LIB\COMMON\TEXTPARA.H
C:\USERS\AKRISTMANN\DESKTOP\GRAPHVIZ-CMAKE\LIB\COMMON\USERSHAPE.H
C:\USERS\AKRISTMANN\DESKTOP\GRAPHVIZ-CMAKE\LIB\CDT\CDT.H
D:\PROGRAMME\VISUAL STUDIO 2010\VC\INCLUDE\STDDEF.H
C:\USERS\AKRISTMANN\DESKTOP\GRAPHVIZ-CMAKE\LIB\GRAPH\GRAPH.H
D:\PROGRAMME\VISUAL STUDIO 2010\VC\INCLUDE\SYS\TYPES.H
D:\PROGRAMME\VISUAL STUDIO 2010\VC\INCLUDE\STDLIB.H
C:\USERS\AKRISTMANN\DESKTOP\GRAPHVIZ-CMAKE\LIB\GVC\GVPLUGIN.H
C:\USERS\AKRISTMANN\DESKTOP\GRAPHVIZ-CMAKE\LIB\GVC\GVCJOB.H
C:\USERS\AKRISTMANN\DESKTOP\GRAPHVIZ-CMAKE\LIB\GVC\GVCOMMON.H
C:\USERS\AKRISTMANN\DESKTOP\GRAPHVIZ-CMAKE\LIB\COMMON\COLOR.H
C:\USERS\AKRISTMANN\DESKTOP\GRAPHVIZ-CMAKE\LIB\COMMON\GLOBALS.H
^C:\USERS\AKRISTMANN\DESKTOP\GRAPHVIZ-CMAKE\PLUGIN\NEATO_LAYOUT\GVPLUGIN_NEATO_LAYOUT.C
C:\USERS\AKRISTMANN\DESKTOP\GRAPHVIZ-CMAKE\LIB\GVC\GVPLUGIN.H
C:\USERS\AKRISTMANN\DESKTOP\GRAPHVIZ-CMAKE\LIB\GVC\GVCEXT.H
