^C:\USERS\AKRISTMANN\DESKTOP\GRAPHVIZ-CMAKE\PLUGIN\NEATO_LAYOUT\GVLAYOUT_NEATO_LAYOUT.C|C:\USERS\AKRISTMANN\DESKTOP\GRAPHVIZ-CMAKE\PLUGIN\NEATO_LAYOUT\GVPLUGIN_NEATO_LAYOUT.C
C:\USERS\AKRISTMANN\DESKTOP\GRAPHVIZ-CMAKE\BUILD\CMAKE\PLUGIN\NEATO_LAYOUT\GRAPHVIZ_PLUGIN_NEATO_LAYOUT.DIR\DEBUG\GVPLUGIN_NEATO_LAYOUT.OBJ
C:\USERS\AKRISTMANN\DESKTOP\GRAPHVIZ-CMAKE\BUILD\CMAKE\PLUGIN\NEATO_LAYOUT\GRAPHVIZ_PLUGIN_NEATO_LAYOUT.DIR\DEBUG\GVLAYOUT_NEATO_LAYOUT.OBJ
