^C:\USERS\AKRISTMANN\DESKTOP\GRAPHVIZ-CMAKE\CMAKE\PLUGIN\NEATO_LAYOUT\CMAKELISTS.TXT
setlocal
"D:\CMake 2.8\bin\cmake.exe" -HC:/Users/akristmann/Desktop/graphviz-cmake -BC:/Users/akristmann/Desktop/graphviz-cmake/BUILD --check-stamp-file C:\Users\akristmann\Desktop\graphviz-cmake\BUILD\CMake\plugin\neato_layout\CMakeFiles\generate.stamp
if %errorlevel% neq 0 goto :cmEnd
:cmEnd
endlocal & call :cmErrorLevel %errorlevel% & goto :cmDone
:cmErrorLevel
exit /b %1
:cmDone
if %errorlevel% neq 0 goto :VCEnd
