^C:\USERS\AKRISTMANN\DESKTOP\GRAPHVIZ-CMAKE\LIB\PATHPLAN\CVT.C
D:\PROGRAMME\VISUAL STUDIO 2010\VC\INCLUDE\STDIO.H
D:\PROGRAMME\VISUAL STUDIO 2010\VC\INCLUDE\CRTDEFS.H
D:\PROGRAMME\VISUAL STUDIO 2010\VC\INCLUDE\SAL.H
D:\PROGRAMME\VISUAL STUDIO 2010\VC\INCLUDE\CODEANALYSIS\SOURCEANNOTATIONS.H
D:\PROGRAMME\VISUAL STUDIO 2010\VC\INCLUDE\VADEFS.H
D:\PROGRAMME\VISUAL STUDIO 2010\VC\INCLUDE\SWPRINTF.INL
C:\USERS\AKRISTMANN\DESKTOP\GRAPHVIZ-CMAKE\LIB\PATHPLAN\VIS.H
D:\PROGRAMME\VISUAL STUDIO 2010\VC\INCLUDE\ASSERT.H
D:\PROGRAMME\VISUAL STUDIO 2010\VC\INCLUDE\MATH.H
D:\PROGRAMME\VISUAL STUDIO 2010\VC\INCLUDE\STDLIB.H
D:\PROGRAMME\VISUAL STUDIO 2010\VC\INCLUDE\LIMITS.H
C:\USERS\AKRISTMANN\DESKTOP\GRAPHVIZ-CMAKE\LIB\PATHPLAN\VISPATH.H
C:\USERS\AKRISTMANN\DESKTOP\GRAPHVIZ-CMAKE\LIB\PATHPLAN\PATHGEOM.H
C:\USERS\AKRISTMANN\DESKTOP\GRAPHVIZ-CMAKE\LIB\PATHPLAN\PATHUTIL.H
C:\USERS\AKRISTMANN\DESKTOP\GRAPHVIZ-CMAKE\LIB\PATHPLAN\PATHPLAN.H
^C:\USERS\AKRISTMANN\DESKTOP\GRAPHVIZ-CMAKE\LIB\PATHPLAN\INPOLY.C
D:\PROGRAMME\VISUAL STUDIO 2010\VC\INCLUDE\STDLIB.H
D:\PROGRAMME\VISUAL STUDIO 2010\VC\INCLUDE\CRTDEFS.H
D:\PROGRAMME\VISUAL STUDIO 2010\VC\INCLUDE\SAL.H
D:\PROGRAMME\VISUAL STUDIO 2010\VC\INCLUDE\CODEANALYSIS\SOURCEANNOTATIONS.H
D:\PROGRAMME\VISUAL STUDIO 2010\VC\INCLUDE\VADEFS.H
D:\PROGRAMME\VISUAL STUDIO 2010\VC\INCLUDE\LIMITS.H
C:\USERS\AKRISTMANN\DESKTOP\GRAPHVIZ-CMAKE\LIB\PATHPLAN\VISPATH.H
C:\USERS\AKRISTMANN\DESKTOP\GRAPHVIZ-CMAKE\LIB\PATHPLAN\PATHGEOM.H
C:\USERS\AKRISTMANN\DESKTOP\GRAPHVIZ-CMAKE\LIB\PATHPLAN\PATHUTIL.H
C:\USERS\AKRISTMANN\DESKTOP\GRAPHVIZ-CMAKE\LIB\PATHPLAN\PATHPLAN.H
^C:\USERS\AKRISTMANN\DESKTOP\GRAPHVIZ-CMAKE\LIB\PATHPLAN\ROUTE.C
D:\PROGRAMME\VISUAL STUDIO 2010\VC\INCLUDE\STDLIB.H
D:\PROGRAMME\VISUAL STUDIO 2010\VC\INCLUDE\CRTDEFS.H
D:\PROGRAMME\VISUAL STUDIO 2010\VC\INCLUDE\SAL.H
D:\PROGRAMME\VISUAL STUDIO 2010\VC\INCLUDE\CODEANALYSIS\SOURCEANNOTATIONS.H
D:\PROGRAMME\VISUAL STUDIO 2010\VC\INCLUDE\VADEFS.H
D:\PROGRAMME\VISUAL STUDIO 2010\VC\INCLUDE\LIMITS.H
D:\PROGRAMME\VISUAL STUDIO 2010\VC\INCLUDE\STDIO.H
D:\PROGRAMME\VISUAL STUDIO 2010\VC\INCLUDE\SWPRINTF.INL
D:\PROGRAMME\VISUAL STUDIO 2010\VC\INCLUDE\MATH.H
C:\USERS\AKRISTMANN\DESKTOP\GRAPHVIZ-CMAKE\LIB\PATHPLAN\PATHUTIL.H
C:\USERS\AKRISTMANN\DESKTOP\GRAPHVIZ-CMAKE\LIB\PATHPLAN\PATHPLAN.H
C:\USERS\AKRISTMANN\DESKTOP\GRAPHVIZ-CMAKE\LIB\PATHPLAN\PATHGEOM.H
C:\USERS\AKRISTMANN\DESKTOP\GRAPHVIZ-CMAKE\LIB\PATHPLAN\SOLVERS.H
^C:\USERS\AKRISTMANN\DESKTOP\GRAPHVIZ-CMAKE\LIB\PATHPLAN\SHORTEST.C
D:\PROGRAMME\VISUAL STUDIO 2010\VC\INCLUDE\STDLIB.H
D:\PROGRAMME\VISUAL STUDIO 2010\VC\INCLUDE\CRTDEFS.H
D:\PROGRAMME\VISUAL STUDIO 2010\VC\INCLUDE\SAL.H
D:\PROGRAMME\VISUAL STUDIO 2010\VC\INCLUDE\CODEANALYSIS\SOURCEANNOTATIONS.H
D:\PROGRAMME\VISUAL STUDIO 2010\VC\INCLUDE\VADEFS.H
D:\PROGRAMME\VISUAL STUDIO 2010\VC\INCLUDE\LIMITS.H
D:\PROGRAMME\VISUAL STUDIO 2010\VC\INCLUDE\STDIO.H
D:\PROGRAMME\VISUAL STUDIO 2010\VC\INCLUDE\SWPRINTF.INL
D:\PROGRAMME\VISUAL STUDIO 2010\VC\INCLUDE\MATH.H
C:\USERS\AKRISTMANN\DESKTOP\GRAPHVIZ-CMAKE\LIB\PATHPLAN\PATHUTIL.H
C:\USERS\AKRISTMANN\DESKTOP\GRAPHVIZ-CMAKE\LIB\PATHPLAN\PATHPLAN.H
C:\USERS\AKRISTMANN\DESKTOP\GRAPHVIZ-CMAKE\LIB\PATHPLAN\PATHGEOM.H
^C:\USERS\AKRISTMANN\DESKTOP\GRAPHVIZ-CMAKE\LIB\PATHPLAN\SHORTESTPTH.C
C:\USERS\AKRISTMANN\DESKTOP\GRAPHVIZ-CMAKE\LIB\PATHPLAN\VIS.H
D:\PROGRAMME\VISUAL STUDIO 2010\VC\INCLUDE\ASSERT.H
D:\PROGRAMME\VISUAL STUDIO 2010\VC\INCLUDE\CRTDEFS.H
D:\PROGRAMME\VISUAL STUDIO 2010\VC\INCLUDE\SAL.H
D:\PROGRAMME\VISUAL STUDIO 2010\VC\INCLUDE\CODEANALYSIS\SOURCEANNOTATIONS.H
D:\PROGRAMME\VISUAL STUDIO 2010\VC\INCLUDE\VADEFS.H
D:\PROGRAMME\VISUAL STUDIO 2010\VC\INCLUDE\MATH.H
D:\PROGRAMME\VISUAL STUDIO 2010\VC\INCLUDE\STDLIB.H
D:\PROGRAMME\VISUAL STUDIO 2010\VC\INCLUDE\LIMITS.H
C:\USERS\AKRISTMANN\DESKTOP\GRAPHVIZ-CMAKE\LIB\PATHPLAN\VISPATH.H
C:\USERS\AKRISTMANN\DESKTOP\GRAPHVIZ-CMAKE\LIB\PATHPLAN\PATHGEOM.H
C:\USERS\AKRISTMANN\DESKTOP\GRAPHVIZ-CMAKE\LIB\PATHPLAN\PATHUTIL.H
C:\USERS\AKRISTMANN\DESKTOP\GRAPHVIZ-CMAKE\LIB\PATHPLAN\PATHPLAN.H
^C:\USERS\AKRISTMANN\DESKTOP\GRAPHVIZ-CMAKE\LIB\PATHPLAN\SOLVERS.C
C:\USERS\AKRISTMANN\DESKTOP\GRAPHVIZ-CMAKE\CONFIG.H
D:\PROGRAMME\VISUAL STUDIO 2010\VC\INCLUDE\MATH.H
D:\PROGRAMME\VISUAL STUDIO 2010\VC\INCLUDE\CRTDEFS.H
D:\PROGRAMME\VISUAL STUDIO 2010\VC\INCLUDE\SAL.H
D:\PROGRAMME\VISUAL STUDIO 2010\VC\INCLUDE\CODEANALYSIS\SOURCEANNOTATIONS.H
D:\PROGRAMME\VISUAL STUDIO 2010\VC\INCLUDE\VADEFS.H
C:\USERS\AKRISTMANN\DESKTOP\GRAPHVIZ-CMAKE\LIB\PATHPLAN\SOLVERS.H
^C:\USERS\AKRISTMANN\DESKTOP\GRAPHVIZ-CMAKE\LIB\PATHPLAN\TRIANG.C
D:\PROGRAMME\VISUAL STUDIO 2010\VC\INCLUDE\STDIO.H
D:\PROGRAMME\VISUAL STUDIO 2010\VC\INCLUDE\CRTDEFS.H
D:\PROGRAMME\VISUAL STUDIO 2010\VC\INCLUDE\SAL.H
D:\PROGRAMME\VISUAL STUDIO 2010\VC\INCLUDE\CODEANALYSIS\SOURCEANNOTATIONS.H
D:\PROGRAMME\VISUAL STUDIO 2010\VC\INCLUDE\VADEFS.H
D:\PROGRAMME\VISUAL STUDIO 2010\VC\INCLUDE\SWPRINTF.INL
D:\PROGRAMME\VISUAL STUDIO 2010\VC\INCLUDE\MATH.H
D:\PROGRAMME\VISUAL STUDIO 2010\VC\INCLUDE\STDLIB.H
D:\PROGRAMME\VISUAL STUDIO 2010\VC\INCLUDE\LIMITS.H
C:\USERS\AKRISTMANN\DESKTOP\GRAPHVIZ-CMAKE\LIB\PATHPLAN\PATHUTIL.H
C:\USERS\AKRISTMANN\DESKTOP\GRAPHVIZ-CMAKE\LIB\PATHPLAN\PATHPLAN.H
C:\USERS\AKRISTMANN\DESKTOP\GRAPHVIZ-CMAKE\LIB\PATHPLAN\PATHGEOM.H
C:\USERS\AKRISTMANN\DESKTOP\GRAPHVIZ-CMAKE\LIB\PATHPLAN\TRI.H
^C:\USERS\AKRISTMANN\DESKTOP\GRAPHVIZ-CMAKE\LIB\PATHPLAN\UTIL.C
D:\PROGRAMME\VISUAL STUDIO 2010\VC\INCLUDE\ASSERT.H
D:\PROGRAMME\VISUAL STUDIO 2010\VC\INCLUDE\CRTDEFS.H
D:\PROGRAMME\VISUAL STUDIO 2010\VC\INCLUDE\SAL.H
D:\PROGRAMME\VISUAL STUDIO 2010\VC\INCLUDE\CODEANALYSIS\SOURCEANNOTATIONS.H
D:\PROGRAMME\VISUAL STUDIO 2010\VC\INCLUDE\VADEFS.H
D:\PROGRAMME\VISUAL STUDIO 2010\VC\INCLUDE\STDLIB.H
D:\PROGRAMME\VISUAL STUDIO 2010\VC\INCLUDE\LIMITS.H
C:\USERS\AKRISTMANN\DESKTOP\GRAPHVIZ-CMAKE\LIB\PATHPLAN\PATHUTIL.H
C:\USERS\AKRISTMANN\DESKTOP\GRAPHVIZ-CMAKE\LIB\PATHPLAN\PATHPLAN.H
C:\USERS\AKRISTMANN\DESKTOP\GRAPHVIZ-CMAKE\LIB\PATHPLAN\PATHGEOM.H
^C:\USERS\AKRISTMANN\DESKTOP\GRAPHVIZ-CMAKE\LIB\PATHPLAN\VISIBILITY.C
C:\USERS\AKRISTMANN\DESKTOP\GRAPHVIZ-CMAKE\LIB\PATHPLAN\VIS.H
D:\PROGRAMME\VISUAL STUDIO 2010\VC\INCLUDE\ASSERT.H
D:\PROGRAMME\VISUAL STUDIO 2010\VC\INCLUDE\CRTDEFS.H
D:\PROGRAMME\VISUAL STUDIO 2010\VC\INCLUDE\SAL.H
D:\PROGRAMME\VISUAL STUDIO 2010\VC\INCLUDE\CODEANALYSIS\SOURCEANNOTATIONS.H
D:\PROGRAMME\VISUAL STUDIO 2010\VC\INCLUDE\VADEFS.H
D:\PROGRAMME\VISUAL STUDIO 2010\VC\INCLUDE\MATH.H
D:\PROGRAMME\VISUAL STUDIO 2010\VC\INCLUDE\STDLIB.H
D:\PROGRAMME\VISUAL STUDIO 2010\VC\INCLUDE\LIMITS.H
C:\USERS\AKRISTMANN\DESKTOP\GRAPHVIZ-CMAKE\LIB\PATHPLAN\VISPATH.H
C:\USERS\AKRISTMANN\DESKTOP\GRAPHVIZ-CMAKE\LIB\PATHPLAN\PATHGEOM.H
C:\USERS\AKRISTMANN\DESKTOP\GRAPHVIZ-CMAKE\LIB\PATHPLAN\PATHUTIL.H
C:\USERS\AKRISTMANN\DESKTOP\GRAPHVIZ-CMAKE\LIB\PATHPLAN\PATHPLAN.H
