^C:\USERS\AKRISTMANN\DESKTOP\GRAPHVIZ-CMAKE\LIB\GRAPH\AGXBUF.C
/c /I"C:/Users/akristmann/Desktop/graphviz-cmake/lib/graph" /I"C:/Users/akristmann/Desktop/graphviz-cmake/lib/pathplan" /I"C:/Users/akristmann/Desktop/graphviz-cmake/lib/common" /I"C:/Users/akristmann/Desktop/graphviz-cmake/lib/gvc" /I"C:/Users/akristmann/Desktop/graphviz-cmake/lib/dotgen" /I"C:/Users/akristmann/Desktop/graphviz-cmake/lib/fdpgen" /I"C:/Users/akristmann/Desktop/graphviz-cmake/libltdl" /I"C:/Users/akristmann/Desktop/graphviz-cmake/lib/cdt" /I"C:/Users/akristmann/Desktop/graphviz-cmake/lib/xdot" /I"C:/Users/akristmann/Desktop/graphviz-cmake" /nologo /W3 /WX- /O2 /Oy- /D WIN32 /D _WINDOWS /D HAVE_CONFIG_H /D HAVE_SETMODE /D "CMAKE_INTDIR=\"Debug\"" /D _MBCS /Gm- /MD /GS /fp:precise /Zc:wchar_t /Zc:forScope /Fo"graphviz_lib_graph.dir\Debug\\" /Fd"C:/Users/akristmann/Desktop/graphviz-cmake/BUILD/CMake/lib/graph/Debug/graphviz_lib_graph.pdb" /Gd /TC /analyze- /errorReport:prompt  /Zm1000 -g -gdwarf-2  C:\USERS\AKRISTMANN\DESKTOP\GRAPHVIZ-CMAKE\LIB\GRAPH\AGXBUF.C
^C:\USERS\AKRISTMANN\DESKTOP\GRAPHVIZ-CMAKE\LIB\GRAPH\ATTRIBS.C
/c /I"C:/Users/akristmann/Desktop/graphviz-cmake/lib/graph" /I"C:/Users/akristmann/Desktop/graphviz-cmake/lib/pathplan" /I"C:/Users/akristmann/Desktop/graphviz-cmake/lib/common" /I"C:/Users/akristmann/Desktop/graphviz-cmake/lib/gvc" /I"C:/Users/akristmann/Desktop/graphviz-cmake/lib/dotgen" /I"C:/Users/akristmann/Desktop/graphviz-cmake/lib/fdpgen" /I"C:/Users/akristmann/Desktop/graphviz-cmake/libltdl" /I"C:/Users/akristmann/Desktop/graphviz-cmake/lib/cdt" /I"C:/Users/akristmann/Desktop/graphviz-cmake/lib/xdot" /I"C:/Users/akristmann/Desktop/graphviz-cmake" /nologo /W3 /WX- /O2 /Oy- /D WIN32 /D _WINDOWS /D HAVE_CONFIG_H /D HAVE_SETMODE /D "CMAKE_INTDIR=\"Debug\"" /D _MBCS /Gm- /MD /GS /fp:precise /Zc:wchar_t /Zc:forScope /Fo"graphviz_lib_graph.dir\Debug\\" /Fd"C:/Users/akristmann/Desktop/graphviz-cmake/BUILD/CMake/lib/graph/Debug/graphviz_lib_graph.pdb" /Gd /TC /analyze- /errorReport:prompt  /Zm1000 -g -gdwarf-2  C:\USERS\AKRISTMANN\DESKTOP\GRAPHVIZ-CMAKE\LIB\GRAPH\ATTRIBS.C
^C:\USERS\AKRISTMANN\DESKTOP\GRAPHVIZ-CMAKE\LIB\GRAPH\EDGE.C
/c /I"C:/Users/akristmann/Desktop/graphviz-cmake/lib/graph" /I"C:/Users/akristmann/Desktop/graphviz-cmake/lib/pathplan" /I"C:/Users/akristmann/Desktop/graphviz-cmake/lib/common" /I"C:/Users/akristmann/Desktop/graphviz-cmake/lib/gvc" /I"C:/Users/akristmann/Desktop/graphviz-cmake/lib/dotgen" /I"C:/Users/akristmann/Desktop/graphviz-cmake/lib/fdpgen" /I"C:/Users/akristmann/Desktop/graphviz-cmake/libltdl" /I"C:/Users/akristmann/Desktop/graphviz-cmake/lib/cdt" /I"C:/Users/akristmann/Desktop/graphviz-cmake/lib/xdot" /I"C:/Users/akristmann/Desktop/graphviz-cmake" /nologo /W3 /WX- /O2 /Oy- /D WIN32 /D _WINDOWS /D HAVE_CONFIG_H /D HAVE_SETMODE /D "CMAKE_INTDIR=\"Debug\"" /D _MBCS /Gm- /MD /GS /fp:precise /Zc:wchar_t /Zc:forScope /Fo"graphviz_lib_graph.dir\Debug\\" /Fd"C:/Users/akristmann/Desktop/graphviz-cmake/BUILD/CMake/lib/graph/Debug/graphviz_lib_graph.pdb" /Gd /TC /analyze- /errorReport:prompt  /Zm1000 -g -gdwarf-2  C:\USERS\AKRISTMANN\DESKTOP\GRAPHVIZ-CMAKE\LIB\GRAPH\EDGE.C
^C:\USERS\AKRISTMANN\DESKTOP\GRAPHVIZ-CMAKE\LIB\GRAPH\GRAPH.C
/c /I"C:/Users/akristmann/Desktop/graphviz-cmake/lib/graph" /I"C:/Users/akristmann/Desktop/graphviz-cmake/lib/pathplan" /I"C:/Users/akristmann/Desktop/graphviz-cmake/lib/common" /I"C:/Users/akristmann/Desktop/graphviz-cmake/lib/gvc" /I"C:/Users/akristmann/Desktop/graphviz-cmake/lib/dotgen" /I"C:/Users/akristmann/Desktop/graphviz-cmake/lib/fdpgen" /I"C:/Users/akristmann/Desktop/graphviz-cmake/libltdl" /I"C:/Users/akristmann/Desktop/graphviz-cmake/lib/cdt" /I"C:/Users/akristmann/Desktop/graphviz-cmake/lib/xdot" /I"C:/Users/akristmann/Desktop/graphviz-cmake" /nologo /W3 /WX- /O2 /Oy- /D WIN32 /D _WINDOWS /D HAVE_CONFIG_H /D HAVE_SETMODE /D "CMAKE_INTDIR=\"Debug\"" /D _MBCS /Gm- /MD /GS /fp:precise /Zc:wchar_t /Zc:forScope /Fo"graphviz_lib_graph.dir\Debug\\" /Fd"C:/Users/akristmann/Desktop/graphviz-cmake/BUILD/CMake/lib/graph/Debug/graphviz_lib_graph.pdb" /Gd /TC /analyze- /errorReport:prompt  /Zm1000 -g -gdwarf-2  C:\USERS\AKRISTMANN\DESKTOP\GRAPHVIZ-CMAKE\LIB\GRAPH\GRAPH.C
^C:\USERS\AKRISTMANN\DESKTOP\GRAPHVIZ-CMAKE\LIB\GRAPH\GRAPHIO.C
/c /I"C:/Users/akristmann/Desktop/graphviz-cmake/lib/graph" /I"C:/Users/akristmann/Desktop/graphviz-cmake/lib/pathplan" /I"C:/Users/akristmann/Desktop/graphviz-cmake/lib/common" /I"C:/Users/akristmann/Desktop/graphviz-cmake/lib/gvc" /I"C:/Users/akristmann/Desktop/graphviz-cmake/lib/dotgen" /I"C:/Users/akristmann/Desktop/graphviz-cmake/lib/fdpgen" /I"C:/Users/akristmann/Desktop/graphviz-cmake/libltdl" /I"C:/Users/akristmann/Desktop/graphviz-cmake/lib/cdt" /I"C:/Users/akristmann/Desktop/graphviz-cmake/lib/xdot" /I"C:/Users/akristmann/Desktop/graphviz-cmake" /nologo /W3 /WX- /O2 /Oy- /D WIN32 /D _WINDOWS /D HAVE_CONFIG_H /D HAVE_SETMODE /D "CMAKE_INTDIR=\"Debug\"" /D _MBCS /Gm- /MD /GS /fp:precise /Zc:wchar_t /Zc:forScope /Fo"graphviz_lib_graph.dir\Debug\\" /Fd"C:/Users/akristmann/Desktop/graphviz-cmake/BUILD/CMake/lib/graph/Debug/graphviz_lib_graph.pdb" /Gd /TC /analyze- /errorReport:prompt  /Zm1000 -g -gdwarf-2  C:\USERS\AKRISTMANN\DESKTOP\GRAPHVIZ-CMAKE\LIB\GRAPH\GRAPHIO.C
^C:\USERS\AKRISTMANN\DESKTOP\GRAPHVIZ-CMAKE\LIB\GRAPH\LEXER.C
/c /I"C:/Users/akristmann/Desktop/graphviz-cmake/lib/graph" /I"C:/Users/akristmann/Desktop/graphviz-cmake/lib/pathplan" /I"C:/Users/akristmann/Desktop/graphviz-cmake/lib/common" /I"C:/Users/akristmann/Desktop/graphviz-cmake/lib/gvc" /I"C:/Users/akristmann/Desktop/graphviz-cmake/lib/dotgen" /I"C:/Users/akristmann/Desktop/graphviz-cmake/lib/fdpgen" /I"C:/Users/akristmann/Desktop/graphviz-cmake/libltdl" /I"C:/Users/akristmann/Desktop/graphviz-cmake/lib/cdt" /I"C:/Users/akristmann/Desktop/graphviz-cmake/lib/xdot" /I"C:/Users/akristmann/Desktop/graphviz-cmake" /nologo /W3 /WX- /O2 /Oy- /D WIN32 /D _WINDOWS /D HAVE_CONFIG_H /D HAVE_SETMODE /D "CMAKE_INTDIR=\"Debug\"" /D _MBCS /Gm- /MD /GS /fp:precise /Zc:wchar_t /Zc:forScope /Fo"graphviz_lib_graph.dir\Debug\\" /Fd"C:/Users/akristmann/Desktop/graphviz-cmake/BUILD/CMake/lib/graph/Debug/graphviz_lib_graph.pdb" /Gd /TC /analyze- /errorReport:prompt  /Zm1000 -g -gdwarf-2  C:\USERS\AKRISTMANN\DESKTOP\GRAPHVIZ-CMAKE\LIB\GRAPH\LEXER.C
^C:\USERS\AKRISTMANN\DESKTOP\GRAPHVIZ-CMAKE\LIB\GRAPH\NODE.C
/c /I"C:/Users/akristmann/Desktop/graphviz-cmake/lib/graph" /I"C:/Users/akristmann/Desktop/graphviz-cmake/lib/pathplan" /I"C:/Users/akristmann/Desktop/graphviz-cmake/lib/common" /I"C:/Users/akristmann/Desktop/graphviz-cmake/lib/gvc" /I"C:/Users/akristmann/Desktop/graphviz-cmake/lib/dotgen" /I"C:/Users/akristmann/Desktop/graphviz-cmake/lib/fdpgen" /I"C:/Users/akristmann/Desktop/graphviz-cmake/libltdl" /I"C:/Users/akristmann/Desktop/graphviz-cmake/lib/cdt" /I"C:/Users/akristmann/Desktop/graphviz-cmake/lib/xdot" /I"C:/Users/akristmann/Desktop/graphviz-cmake" /nologo /W3 /WX- /O2 /Oy- /D WIN32 /D _WINDOWS /D HAVE_CONFIG_H /D HAVE_SETMODE /D "CMAKE_INTDIR=\"Debug\"" /D _MBCS /Gm- /MD /GS /fp:precise /Zc:wchar_t /Zc:forScope /Fo"graphviz_lib_graph.dir\Debug\\" /Fd"C:/Users/akristmann/Desktop/graphviz-cmake/BUILD/CMake/lib/graph/Debug/graphviz_lib_graph.pdb" /Gd /TC /analyze- /errorReport:prompt  /Zm1000 -g -gdwarf-2  C:\USERS\AKRISTMANN\DESKTOP\GRAPHVIZ-CMAKE\LIB\GRAPH\NODE.C
^C:\USERS\AKRISTMANN\DESKTOP\GRAPHVIZ-CMAKE\LIB\GRAPH\PARSER.C
/c /I"C:/Users/akristmann/Desktop/graphviz-cmake/lib/graph" /I"C:/Users/akristmann/Desktop/graphviz-cmake/lib/pathplan" /I"C:/Users/akristmann/Desktop/graphviz-cmake/lib/common" /I"C:/Users/akristmann/Desktop/graphviz-cmake/lib/gvc" /I"C:/Users/akristmann/Desktop/graphviz-cmake/lib/dotgen" /I"C:/Users/akristmann/Desktop/graphviz-cmake/lib/fdpgen" /I"C:/Users/akristmann/Desktop/graphviz-cmake/libltdl" /I"C:/Users/akristmann/Desktop/graphviz-cmake/lib/cdt" /I"C:/Users/akristmann/Desktop/graphviz-cmake/lib/xdot" /I"C:/Users/akristmann/Desktop/graphviz-cmake" /nologo /W3 /WX- /O2 /Oy- /D WIN32 /D _WINDOWS /D HAVE_CONFIG_H /D HAVE_SETMODE /D "CMAKE_INTDIR=\"Debug\"" /D _MBCS /Gm- /MD /GS /fp:precise /Zc:wchar_t /Zc:forScope /Fo"graphviz_lib_graph.dir\Debug\\" /Fd"C:/Users/akristmann/Desktop/graphviz-cmake/BUILD/CMake/lib/graph/Debug/graphviz_lib_graph.pdb" /Gd /TC /analyze- /errorReport:prompt  /Zm1000 -g -gdwarf-2  C:\USERS\AKRISTMANN\DESKTOP\GRAPHVIZ-CMAKE\LIB\GRAPH\PARSER.C
^C:\USERS\AKRISTMANN\DESKTOP\GRAPHVIZ-CMAKE\LIB\GRAPH\REFSTR.C
/c /I"C:/Users/akristmann/Desktop/graphviz-cmake/lib/graph" /I"C:/Users/akristmann/Desktop/graphviz-cmake/lib/pathplan" /I"C:/Users/akristmann/Desktop/graphviz-cmake/lib/common" /I"C:/Users/akristmann/Desktop/graphviz-cmake/lib/gvc" /I"C:/Users/akristmann/Desktop/graphviz-cmake/lib/dotgen" /I"C:/Users/akristmann/Desktop/graphviz-cmake/lib/fdpgen" /I"C:/Users/akristmann/Desktop/graphviz-cmake/libltdl" /I"C:/Users/akristmann/Desktop/graphviz-cmake/lib/cdt" /I"C:/Users/akristmann/Desktop/graphviz-cmake/lib/xdot" /I"C:/Users/akristmann/Desktop/graphviz-cmake" /nologo /W3 /WX- /O2 /Oy- /D WIN32 /D _WINDOWS /D HAVE_CONFIG_H /D HAVE_SETMODE /D "CMAKE_INTDIR=\"Debug\"" /D _MBCS /Gm- /MD /GS /fp:precise /Zc:wchar_t /Zc:forScope /Fo"graphviz_lib_graph.dir\Debug\\" /Fd"C:/Users/akristmann/Desktop/graphviz-cmake/BUILD/CMake/lib/graph/Debug/graphviz_lib_graph.pdb" /Gd /TC /analyze- /errorReport:prompt  /Zm1000 -g -gdwarf-2  C:\USERS\AKRISTMANN\DESKTOP\GRAPHVIZ-CMAKE\LIB\GRAPH\REFSTR.C
^C:\USERS\AKRISTMANN\DESKTOP\GRAPHVIZ-CMAKE\LIB\GRAPH\TRIE.C
/c /I"C:/Users/akristmann/Desktop/graphviz-cmake/lib/graph" /I"C:/Users/akristmann/Desktop/graphviz-cmake/lib/pathplan" /I"C:/Users/akristmann/Desktop/graphviz-cmake/lib/common" /I"C:/Users/akristmann/Desktop/graphviz-cmake/lib/gvc" /I"C:/Users/akristmann/Desktop/graphviz-cmake/lib/dotgen" /I"C:/Users/akristmann/Desktop/graphviz-cmake/lib/fdpgen" /I"C:/Users/akristmann/Desktop/graphviz-cmake/libltdl" /I"C:/Users/akristmann/Desktop/graphviz-cmake/lib/cdt" /I"C:/Users/akristmann/Desktop/graphviz-cmake/lib/xdot" /I"C:/Users/akristmann/Desktop/graphviz-cmake" /nologo /W3 /WX- /O2 /Oy- /D WIN32 /D _WINDOWS /D HAVE_CONFIG_H /D HAVE_SETMODE /D "CMAKE_INTDIR=\"Debug\"" /D _MBCS /Gm- /MD /GS /fp:precise /Zc:wchar_t /Zc:forScope /Fo"graphviz_lib_graph.dir\Debug\\" /Fd"C:/Users/akristmann/Desktop/graphviz-cmake/BUILD/CMake/lib/graph/Debug/graphviz_lib_graph.pdb" /Gd /TC /analyze- /errorReport:prompt  /Zm1000 -g -gdwarf-2  C:\USERS\AKRISTMANN\DESKTOP\GRAPHVIZ-CMAKE\LIB\GRAPH\TRIE.C
