^C:\USERS\AKRISTMANN\DESKTOP\GRAPHVIZ-CMAKE\LIB\DOTGEN\ACYCLIC.C|C:\USERS\AKRISTMANN\DESKTOP\GRAPHVIZ-CMAKE\LIB\DOTGEN\ASPECT.C|C:\USERS\AKRISTMANN\DESKTOP\GRAPHVIZ-CMAKE\LIB\DOTGEN\CLASS1.C|C:\USERS\AKRISTMANN\DESKTOP\GRAPHVIZ-CMAKE\LIB\DOTGEN\CLASS2.C|C:\USERS\AKRISTMANN\DESKTOP\GRAPHVIZ-CMAKE\LIB\DOTGEN\CLUSTER.C|C:\USERS\AKRISTMANN\DESKTOP\GRAPHVIZ-CMAKE\LIB\DOTGEN\COMPOUND.C|C:\USERS\AKRISTMANN\DESKTOP\GRAPHVIZ-CMAKE\LIB\DOTGEN\CONC.C|C:\USERS\AKRISTMANN\DESKTOP\GRAPHVIZ-CMAKE\LIB\DOTGEN\DECOMP.C|C:\USERS\AKRISTMANN\DESKTOP\GRAPHVIZ-CMAKE\LIB\DOTGEN\DOTINIT.C|C:\USERS\AKRISTMANN\DESKTOP\GRAPHVIZ-CMAKE\LIB\DOTGEN\DOTSPLINES.C|C:\USERS\AKRISTMANN\DESKTOP\GRAPHVIZ-CMAKE\LIB\DOTGEN\FASTGR.C|C:\USERS\AKRISTMANN\DESKTOP\GRAPHVIZ-CMAKE\LIB\DOTGEN\FLAT.C|C:\USERS\AKRISTMANN\DESKTOP\GRAPHVIZ-CMAKE\LIB\DOTGEN\MINCROSS.C|C:\USERS\AKRISTMANN\DESKTOP\GRAPHVIZ-CMAKE\LIB\DOTGEN\POSITION.C|C:\USERS\AKRISTMANN\DESKTOP\GRAPHVIZ-CMAKE\LIB\DOTGEN\RANK.C|C:\USERS\AKRISTMANN\DESKTOP\GRAPHVIZ-CMAKE\LIB\DOTGEN\SAMEPORT.C
C:\USERS\AKRISTMANN\DESKTOP\GRAPHVIZ-CMAKE\BUILD\CMAKE\LIB\DOTGEN\GRAPHVIZ_LIB_DOTGEN.DIR\DEBUG\SAMEPORT.OBJ
C:\USERS\AKRISTMANN\DESKTOP\GRAPHVIZ-CMAKE\BUILD\CMAKE\LIB\DOTGEN\GRAPHVIZ_LIB_DOTGEN.DIR\DEBUG\RANK.OBJ
C:\USERS\AKRISTMANN\DESKTOP\GRAPHVIZ-CMAKE\BUILD\CMAKE\LIB\DOTGEN\GRAPHVIZ_LIB_DOTGEN.DIR\DEBUG\POSITION.OBJ
C:\USERS\AKRISTMANN\DESKTOP\GRAPHVIZ-CMAKE\BUILD\CMAKE\LIB\DOTGEN\GRAPHVIZ_LIB_DOTGEN.DIR\DEBUG\MINCROSS.OBJ
C:\USERS\AKRISTMANN\DESKTOP\GRAPHVIZ-CMAKE\BUILD\CMAKE\LIB\DOTGEN\GRAPHVIZ_LIB_DOTGEN.DIR\DEBUG\FLAT.OBJ
C:\USERS\AKRISTMANN\DESKTOP\GRAPHVIZ-CMAKE\BUILD\CMAKE\LIB\DOTGEN\GRAPHVIZ_LIB_DOTGEN.DIR\DEBUG\FASTGR.OBJ
C:\USERS\AKRISTMANN\DESKTOP\GRAPHVIZ-CMAKE\BUILD\CMAKE\LIB\DOTGEN\GRAPHVIZ_LIB_DOTGEN.DIR\DEBUG\DOTSPLINES.OBJ
C:\USERS\AKRISTMANN\DESKTOP\GRAPHVIZ-CMAKE\BUILD\CMAKE\LIB\DOTGEN\GRAPHVIZ_LIB_DOTGEN.DIR\DEBUG\DOTINIT.OBJ
C:\USERS\AKRISTMANN\DESKTOP\GRAPHVIZ-CMAKE\BUILD\CMAKE\LIB\DOTGEN\GRAPHVIZ_LIB_DOTGEN.DIR\DEBUG\DECOMP.OBJ
C:\USERS\AKRISTMANN\DESKTOP\GRAPHVIZ-CMAKE\BUILD\CMAKE\LIB\DOTGEN\GRAPHVIZ_LIB_DOTGEN.DIR\DEBUG\CONC.OBJ
C:\USERS\AKRISTMANN\DESKTOP\GRAPHVIZ-CMAKE\BUILD\CMAKE\LIB\DOTGEN\GRAPHVIZ_LIB_DOTGEN.DIR\DEBUG\COMPOUND.OBJ
C:\USERS\AKRISTMANN\DESKTOP\GRAPHVIZ-CMAKE\BUILD\CMAKE\LIB\DOTGEN\GRAPHVIZ_LIB_DOTGEN.DIR\DEBUG\CLUSTER.OBJ
C:\USERS\AKRISTMANN\DESKTOP\GRAPHVIZ-CMAKE\BUILD\CMAKE\LIB\DOTGEN\GRAPHVIZ_LIB_DOTGEN.DIR\DEBUG\CLASS2.OBJ
C:\USERS\AKRISTMANN\DESKTOP\GRAPHVIZ-CMAKE\BUILD\CMAKE\LIB\DOTGEN\GRAPHVIZ_LIB_DOTGEN.DIR\DEBUG\CLASS1.OBJ
C:\USERS\AKRISTMANN\DESKTOP\GRAPHVIZ-CMAKE\BUILD\CMAKE\LIB\DOTGEN\GRAPHVIZ_LIB_DOTGEN.DIR\DEBUG\ASPECT.OBJ
C:\USERS\AKRISTMANN\DESKTOP\GRAPHVIZ-CMAKE\BUILD\CMAKE\LIB\DOTGEN\GRAPHVIZ_LIB_DOTGEN.DIR\DEBUG\ACYCLIC.OBJ
