^C:\USERS\AKRISTMANN\DESKTOP\GRAPHVIZ-CMAKE\LIB\GRAPH\AGXBUF.C|C:\USERS\AKRISTMANN\DESKTOP\GRAPHVIZ-CMAKE\LIB\GRAPH\ATTRIBS.C|C:\USERS\AKRISTMANN\DESKTOP\GRAPHVIZ-CMAKE\LIB\GRAPH\EDGE.C|C:\USERS\AKRISTMANN\DESKTOP\GRAPHVIZ-CMAKE\LIB\GRAPH\GRAPH.C|C:\USERS\AKRISTMANN\DESKTOP\GRAPHVIZ-CMAKE\LIB\GRAPH\GRAPHIO.C|C:\USERS\AKRISTMANN\DESKTOP\GRAPHVIZ-CMAKE\LIB\GRAPH\LEXER.C|C:\USERS\AKRISTMANN\DESKTOP\GRAPHVIZ-CMAKE\LIB\GRAPH\NODE.C|C:\USERS\AKRISTMANN\DESKTOP\GRAPHVIZ-CMAKE\LIB\GRAPH\PARSER.C|C:\USERS\AKRISTMANN\DESKTOP\GRAPHVIZ-CMAKE\LIB\GRAPH\REFSTR.C|C:\USERS\AKRISTMANN\DESKTOP\GRAPHVIZ-CMAKE\LIB\GRAPH\TRIE.C
C:\USERS\AKRISTMANN\DESKTOP\GRAPHVIZ-CMAKE\BUILD\CMAKE\LIB\GRAPH\GRAPHVIZ_LIB_GRAPH.DIR\DEBUG\TRIE.OBJ
C:\USERS\AKRISTMANN\DESKTOP\GRAPHVIZ-CMAKE\BUILD\CMAKE\LIB\GRAPH\GRAPHVIZ_LIB_GRAPH.DIR\DEBUG\REFSTR.OBJ
C:\USERS\AKRISTMANN\DESKTOP\GRAPHVIZ-CMAKE\BUILD\CMAKE\LIB\GRAPH\GRAPHVIZ_LIB_GRAPH.DIR\DEBUG\PARSER.OBJ
C:\USERS\AKRISTMANN\DESKTOP\GRAPHVIZ-CMAKE\BUILD\CMAKE\LIB\GRAPH\GRAPHVIZ_LIB_GRAPH.DIR\DEBUG\NODE.OBJ
C:\USERS\AKRISTMANN\DESKTOP\GRAPHVIZ-CMAKE\BUILD\CMAKE\LIB\GRAPH\GRAPHVIZ_LIB_GRAPH.DIR\DEBUG\LEXER.OBJ
C:\USERS\AKRISTMANN\DESKTOP\GRAPHVIZ-CMAKE\BUILD\CMAKE\LIB\GRAPH\GRAPHVIZ_LIB_GRAPH.DIR\DEBUG\GRAPHIO.OBJ
C:\USERS\AKRISTMANN\DESKTOP\GRAPHVIZ-CMAKE\BUILD\CMAKE\LIB\GRAPH\GRAPHVIZ_LIB_GRAPH.DIR\DEBUG\GRAPH.OBJ
C:\USERS\AKRISTMANN\DESKTOP\GRAPHVIZ-CMAKE\BUILD\CMAKE\LIB\GRAPH\GRAPHVIZ_LIB_GRAPH.DIR\DEBUG\EDGE.OBJ
C:\USERS\AKRISTMANN\DESKTOP\GRAPHVIZ-CMAKE\BUILD\CMAKE\LIB\GRAPH\GRAPHVIZ_LIB_GRAPH.DIR\DEBUG\ATTRIBS.OBJ
C:\USERS\AKRISTMANN\DESKTOP\GRAPHVIZ-CMAKE\BUILD\CMAKE\LIB\GRAPH\GRAPHVIZ_LIB_GRAPH.DIR\DEBUG\AGXBUF.OBJ
