^C:\USERS\AKRISTMANN\DESKTOP\GRAPHVIZ-CMAKE\LIB\CDT\DTTREE.C
C:\USERS\AKRISTMANN\DESKTOP\GRAPHVIZ-CMAKE\LIB\CDT\DTHDR.H
C:\USERS\AKRISTMANN\DESKTOP\GRAPHVIZ-CMAKE\LIB\CDT\CDT.H
D:\PROGRAMME\VISUAL STUDIO 2010\VC\INCLUDE\STDDEF.H
D:\PROGRAMME\VISUAL STUDIO 2010\VC\INCLUDE\CRTDEFS.H
D:\PROGRAMME\VISUAL STUDIO 2010\VC\INCLUDE\SAL.H
D:\PROGRAMME\VISUAL STUDIO 2010\VC\INCLUDE\CODEANALYSIS\SOURCEANNOTATIONS.H
D:\PROGRAMME\VISUAL STUDIO 2010\VC\INCLUDE\VADEFS.H
^C:\USERS\AKRISTMANN\DESKTOP\GRAPHVIZ-CMAKE\LIB\CDT\DTCLOSE.C
C:\USERS\AKRISTMANN\DESKTOP\GRAPHVIZ-CMAKE\LIB\CDT\DTHDR.H
C:\USERS\AKRISTMANN\DESKTOP\GRAPHVIZ-CMAKE\LIB\CDT\CDT.H
D:\PROGRAMME\VISUAL STUDIO 2010\VC\INCLUDE\STDDEF.H
D:\PROGRAMME\VISUAL STUDIO 2010\VC\INCLUDE\CRTDEFS.H
D:\PROGRAMME\VISUAL STUDIO 2010\VC\INCLUDE\SAL.H
D:\PROGRAMME\VISUAL STUDIO 2010\VC\INCLUDE\CODEANALYSIS\SOURCEANNOTATIONS.H
D:\PROGRAMME\VISUAL STUDIO 2010\VC\INCLUDE\VADEFS.H
^C:\USERS\AKRISTMANN\DESKTOP\GRAPHVIZ-CMAKE\LIB\CDT\DTDISC.C
C:\USERS\AKRISTMANN\DESKTOP\GRAPHVIZ-CMAKE\LIB\CDT\DTHDR.H
C:\USERS\AKRISTMANN\DESKTOP\GRAPHVIZ-CMAKE\LIB\CDT\CDT.H
D:\PROGRAMME\VISUAL STUDIO 2010\VC\INCLUDE\STDDEF.H
D:\PROGRAMME\VISUAL STUDIO 2010\VC\INCLUDE\CRTDEFS.H
D:\PROGRAMME\VISUAL STUDIO 2010\VC\INCLUDE\SAL.H
D:\PROGRAMME\VISUAL STUDIO 2010\VC\INCLUDE\CODEANALYSIS\SOURCEANNOTATIONS.H
D:\PROGRAMME\VISUAL STUDIO 2010\VC\INCLUDE\VADEFS.H
^C:\USERS\AKRISTMANN\DESKTOP\GRAPHVIZ-CMAKE\LIB\CDT\DTEXTRACT.C
C:\USERS\AKRISTMANN\DESKTOP\GRAPHVIZ-CMAKE\LIB\CDT\DTHDR.H
C:\USERS\AKRISTMANN\DESKTOP\GRAPHVIZ-CMAKE\LIB\CDT\CDT.H
D:\PROGRAMME\VISUAL STUDIO 2010\VC\INCLUDE\STDDEF.H
D:\PROGRAMME\VISUAL STUDIO 2010\VC\INCLUDE\CRTDEFS.H
D:\PROGRAMME\VISUAL STUDIO 2010\VC\INCLUDE\SAL.H
D:\PROGRAMME\VISUAL STUDIO 2010\VC\INCLUDE\CODEANALYSIS\SOURCEANNOTATIONS.H
D:\PROGRAMME\VISUAL STUDIO 2010\VC\INCLUDE\VADEFS.H
^C:\USERS\AKRISTMANN\DESKTOP\GRAPHVIZ-CMAKE\LIB\CDT\DTFLATTEN.C
C:\USERS\AKRISTMANN\DESKTOP\GRAPHVIZ-CMAKE\LIB\CDT\DTHDR.H
C:\USERS\AKRISTMANN\DESKTOP\GRAPHVIZ-CMAKE\LIB\CDT\CDT.H
D:\PROGRAMME\VISUAL STUDIO 2010\VC\INCLUDE\STDDEF.H
D:\PROGRAMME\VISUAL STUDIO 2010\VC\INCLUDE\CRTDEFS.H
D:\PROGRAMME\VISUAL STUDIO 2010\VC\INCLUDE\SAL.H
D:\PROGRAMME\VISUAL STUDIO 2010\VC\INCLUDE\CODEANALYSIS\SOURCEANNOTATIONS.H
D:\PROGRAMME\VISUAL STUDIO 2010\VC\INCLUDE\VADEFS.H
^C:\USERS\AKRISTMANN\DESKTOP\GRAPHVIZ-CMAKE\LIB\CDT\DTHASH.C
C:\USERS\AKRISTMANN\DESKTOP\GRAPHVIZ-CMAKE\LIB\CDT\DTHDR.H
C:\USERS\AKRISTMANN\DESKTOP\GRAPHVIZ-CMAKE\LIB\CDT\CDT.H
D:\PROGRAMME\VISUAL STUDIO 2010\VC\INCLUDE\STDDEF.H
D:\PROGRAMME\VISUAL STUDIO 2010\VC\INCLUDE\CRTDEFS.H
D:\PROGRAMME\VISUAL STUDIO 2010\VC\INCLUDE\SAL.H
D:\PROGRAMME\VISUAL STUDIO 2010\VC\INCLUDE\CODEANALYSIS\SOURCEANNOTATIONS.H
D:\PROGRAMME\VISUAL STUDIO 2010\VC\INCLUDE\VADEFS.H
^C:\USERS\AKRISTMANN\DESKTOP\GRAPHVIZ-CMAKE\LIB\CDT\DTLIST.C
C:\USERS\AKRISTMANN\DESKTOP\GRAPHVIZ-CMAKE\LIB\CDT\DTHDR.H
C:\USERS\AKRISTMANN\DESKTOP\GRAPHVIZ-CMAKE\LIB\CDT\CDT.H
D:\PROGRAMME\VISUAL STUDIO 2010\VC\INCLUDE\STDDEF.H
D:\PROGRAMME\VISUAL STUDIO 2010\VC\INCLUDE\CRTDEFS.H
D:\PROGRAMME\VISUAL STUDIO 2010\VC\INCLUDE\SAL.H
D:\PROGRAMME\VISUAL STUDIO 2010\VC\INCLUDE\CODEANALYSIS\SOURCEANNOTATIONS.H
D:\PROGRAMME\VISUAL STUDIO 2010\VC\INCLUDE\VADEFS.H
^C:\USERS\AKRISTMANN\DESKTOP\GRAPHVIZ-CMAKE\LIB\CDT\DTMETHOD.C
C:\USERS\AKRISTMANN\DESKTOP\GRAPHVIZ-CMAKE\LIB\CDT\DTHDR.H
C:\USERS\AKRISTMANN\DESKTOP\GRAPHVIZ-CMAKE\LIB\CDT\CDT.H
D:\PROGRAMME\VISUAL STUDIO 2010\VC\INCLUDE\STDDEF.H
D:\PROGRAMME\VISUAL STUDIO 2010\VC\INCLUDE\CRTDEFS.H
D:\PROGRAMME\VISUAL STUDIO 2010\VC\INCLUDE\SAL.H
D:\PROGRAMME\VISUAL STUDIO 2010\VC\INCLUDE\CODEANALYSIS\SOURCEANNOTATIONS.H
D:\PROGRAMME\VISUAL STUDIO 2010\VC\INCLUDE\VADEFS.H
^C:\USERS\AKRISTMANN\DESKTOP\GRAPHVIZ-CMAKE\LIB\CDT\DTOPEN.C
C:\USERS\AKRISTMANN\DESKTOP\GRAPHVIZ-CMAKE\LIB\CDT\DTHDR.H
C:\USERS\AKRISTMANN\DESKTOP\GRAPHVIZ-CMAKE\LIB\CDT\CDT.H
D:\PROGRAMME\VISUAL STUDIO 2010\VC\INCLUDE\STDDEF.H
D:\PROGRAMME\VISUAL STUDIO 2010\VC\INCLUDE\CRTDEFS.H
D:\PROGRAMME\VISUAL STUDIO 2010\VC\INCLUDE\SAL.H
D:\PROGRAMME\VISUAL STUDIO 2010\VC\INCLUDE\CODEANALYSIS\SOURCEANNOTATIONS.H
D:\PROGRAMME\VISUAL STUDIO 2010\VC\INCLUDE\VADEFS.H
^C:\USERS\AKRISTMANN\DESKTOP\GRAPHVIZ-CMAKE\LIB\CDT\DTRENEW.C
C:\USERS\AKRISTMANN\DESKTOP\GRAPHVIZ-CMAKE\LIB\CDT\DTHDR.H
C:\USERS\AKRISTMANN\DESKTOP\GRAPHVIZ-CMAKE\LIB\CDT\CDT.H
D:\PROGRAMME\VISUAL STUDIO 2010\VC\INCLUDE\STDDEF.H
D:\PROGRAMME\VISUAL STUDIO 2010\VC\INCLUDE\CRTDEFS.H
D:\PROGRAMME\VISUAL STUDIO 2010\VC\INCLUDE\SAL.H
D:\PROGRAMME\VISUAL STUDIO 2010\VC\INCLUDE\CODEANALYSIS\SOURCEANNOTATIONS.H
D:\PROGRAMME\VISUAL STUDIO 2010\VC\INCLUDE\VADEFS.H
^C:\USERS\AKRISTMANN\DESKTOP\GRAPHVIZ-CMAKE\LIB\CDT\DTRESTORE.C
C:\USERS\AKRISTMANN\DESKTOP\GRAPHVIZ-CMAKE\LIB\CDT\DTHDR.H
C:\USERS\AKRISTMANN\DESKTOP\GRAPHVIZ-CMAKE\LIB\CDT\CDT.H
D:\PROGRAMME\VISUAL STUDIO 2010\VC\INCLUDE\STDDEF.H
D:\PROGRAMME\VISUAL STUDIO 2010\VC\INCLUDE\CRTDEFS.H
D:\PROGRAMME\VISUAL STUDIO 2010\VC\INCLUDE\SAL.H
D:\PROGRAMME\VISUAL STUDIO 2010\VC\INCLUDE\CODEANALYSIS\SOURCEANNOTATIONS.H
D:\PROGRAMME\VISUAL STUDIO 2010\VC\INCLUDE\VADEFS.H
^C:\USERS\AKRISTMANN\DESKTOP\GRAPHVIZ-CMAKE\LIB\CDT\DTSIZE.C
C:\USERS\AKRISTMANN\DESKTOP\GRAPHVIZ-CMAKE\LIB\CDT\DTHDR.H
C:\USERS\AKRISTMANN\DESKTOP\GRAPHVIZ-CMAKE\LIB\CDT\CDT.H
D:\PROGRAMME\VISUAL STUDIO 2010\VC\INCLUDE\STDDEF.H
D:\PROGRAMME\VISUAL STUDIO 2010\VC\INCLUDE\CRTDEFS.H
D:\PROGRAMME\VISUAL STUDIO 2010\VC\INCLUDE\SAL.H
D:\PROGRAMME\VISUAL STUDIO 2010\VC\INCLUDE\CODEANALYSIS\SOURCEANNOTATIONS.H
D:\PROGRAMME\VISUAL STUDIO 2010\VC\INCLUDE\VADEFS.H
^C:\USERS\AKRISTMANN\DESKTOP\GRAPHVIZ-CMAKE\LIB\CDT\DTSTAT.C
C:\USERS\AKRISTMANN\DESKTOP\GRAPHVIZ-CMAKE\LIB\CDT\DTHDR.H
C:\USERS\AKRISTMANN\DESKTOP\GRAPHVIZ-CMAKE\LIB\CDT\CDT.H
D:\PROGRAMME\VISUAL STUDIO 2010\VC\INCLUDE\STDDEF.H
D:\PROGRAMME\VISUAL STUDIO 2010\VC\INCLUDE\CRTDEFS.H
D:\PROGRAMME\VISUAL STUDIO 2010\VC\INCLUDE\SAL.H
D:\PROGRAMME\VISUAL STUDIO 2010\VC\INCLUDE\CODEANALYSIS\SOURCEANNOTATIONS.H
D:\PROGRAMME\VISUAL STUDIO 2010\VC\INCLUDE\VADEFS.H
^C:\USERS\AKRISTMANN\DESKTOP\GRAPHVIZ-CMAKE\LIB\CDT\DTSTRHASH.C
C:\USERS\AKRISTMANN\DESKTOP\GRAPHVIZ-CMAKE\LIB\CDT\DTHDR.H
C:\USERS\AKRISTMANN\DESKTOP\GRAPHVIZ-CMAKE\LIB\CDT\CDT.H
D:\PROGRAMME\VISUAL STUDIO 2010\VC\INCLUDE\STDDEF.H
D:\PROGRAMME\VISUAL STUDIO 2010\VC\INCLUDE\CRTDEFS.H
D:\PROGRAMME\VISUAL STUDIO 2010\VC\INCLUDE\SAL.H
D:\PROGRAMME\VISUAL STUDIO 2010\VC\INCLUDE\CODEANALYSIS\SOURCEANNOTATIONS.H
D:\PROGRAMME\VISUAL STUDIO 2010\VC\INCLUDE\VADEFS.H
^C:\USERS\AKRISTMANN\DESKTOP\GRAPHVIZ-CMAKE\LIB\CDT\DTVIEW.C
C:\USERS\AKRISTMANN\DESKTOP\GRAPHVIZ-CMAKE\LIB\CDT\DTHDR.H
C:\USERS\AKRISTMANN\DESKTOP\GRAPHVIZ-CMAKE\LIB\CDT\CDT.H
D:\PROGRAMME\VISUAL STUDIO 2010\VC\INCLUDE\STDDEF.H
D:\PROGRAMME\VISUAL STUDIO 2010\VC\INCLUDE\CRTDEFS.H
D:\PROGRAMME\VISUAL STUDIO 2010\VC\INCLUDE\SAL.H
D:\PROGRAMME\VISUAL STUDIO 2010\VC\INCLUDE\CODEANALYSIS\SOURCEANNOTATIONS.H
D:\PROGRAMME\VISUAL STUDIO 2010\VC\INCLUDE\VADEFS.H
^C:\USERS\AKRISTMANN\DESKTOP\GRAPHVIZ-CMAKE\LIB\CDT\DTWALK.C
C:\USERS\AKRISTMANN\DESKTOP\GRAPHVIZ-CMAKE\LIB\CDT\DTHDR.H
C:\USERS\AKRISTMANN\DESKTOP\GRAPHVIZ-CMAKE\LIB\CDT\CDT.H
D:\PROGRAMME\VISUAL STUDIO 2010\VC\INCLUDE\STDDEF.H
D:\PROGRAMME\VISUAL STUDIO 2010\VC\INCLUDE\CRTDEFS.H
D:\PROGRAMME\VISUAL STUDIO 2010\VC\INCLUDE\SAL.H
D:\PROGRAMME\VISUAL STUDIO 2010\VC\INCLUDE\CODEANALYSIS\SOURCEANNOTATIONS.H
D:\PROGRAMME\VISUAL STUDIO 2010\VC\INCLUDE\VADEFS.H
