^C:\USERS\AKRISTMANN\DESKTOP\GRAPHVIZ-CMAKE\LIB\CDT\DTCLOSE.C|C:\USERS\AKRISTMANN\DESKTOP\GRAPHVIZ-CMAKE\LIB\CDT\DTDISC.C|C:\USERS\AKRISTMANN\DESKTOP\GRAPHVIZ-CMAKE\LIB\CDT\DTEXTRACT.C|C:\USERS\AKRISTMANN\DESKTOP\GRAPHVIZ-CMAKE\LIB\CDT\DTFLATTEN.C|C:\USERS\AKRISTMANN\DESKTOP\GRAPHVIZ-CMAKE\LIB\CDT\DTHASH.C|C:\USERS\AKRISTMANN\DESKTOP\GRAPHVIZ-CMAKE\LIB\CDT\DTLIST.C|C:\USERS\AKRISTMANN\DESKTOP\GRAPHVIZ-CMAKE\LIB\CDT\DTMETHOD.C|C:\USERS\AKRISTMANN\DESKTOP\GRAPHVIZ-CMAKE\LIB\CDT\DTOPEN.C|C:\USERS\AKRISTMANN\DESKTOP\GRAPHVIZ-CMAKE\LIB\CDT\DTRENEW.C|C:\USERS\AKRISTMANN\DESKTOP\GRAPHVIZ-CMAKE\LIB\CDT\DTRESTORE.C|C:\USERS\AKRISTMANN\DESKTOP\GRAPHVIZ-CMAKE\LIB\CDT\DTSIZE.C|C:\USERS\AKRISTMANN\DESKTOP\GRAPHVIZ-CMAKE\LIB\CDT\DTSTAT.C|C:\USERS\AKRISTMANN\DESKTOP\GRAPHVIZ-CMAKE\LIB\CDT\DTSTRHASH.C|C:\USERS\AKRISTMANN\DESKTOP\GRAPHVIZ-CMAKE\LIB\CDT\DTTREE.C|C:\USERS\AKRISTMANN\DESKTOP\GRAPHVIZ-CMAKE\LIB\CDT\DTVIEW.C|C:\USERS\AKRISTMANN\DESKTOP\GRAPHVIZ-CMAKE\LIB\CDT\DTWALK.C
C:\USERS\AKRISTMANN\DESKTOP\GRAPHVIZ-CMAKE\BUILD\CMAKE\LIB\CDT\GRAPHVIZ_LIB_CDT.DIR\DEBUG\DTWALK.OBJ
C:\USERS\AKRISTMANN\DESKTOP\GRAPHVIZ-CMAKE\BUILD\CMAKE\LIB\CDT\GRAPHVIZ_LIB_CDT.DIR\DEBUG\DTVIEW.OBJ
C:\USERS\AKRISTMANN\DESKTOP\GRAPHVIZ-CMAKE\BUILD\CMAKE\LIB\CDT\GRAPHVIZ_LIB_CDT.DIR\DEBUG\DTSTRHASH.OBJ
C:\USERS\AKRISTMANN\DESKTOP\GRAPHVIZ-CMAKE\BUILD\CMAKE\LIB\CDT\GRAPHVIZ_LIB_CDT.DIR\DEBUG\DTSTAT.OBJ
C:\USERS\AKRISTMANN\DESKTOP\GRAPHVIZ-CMAKE\BUILD\CMAKE\LIB\CDT\GRAPHVIZ_LIB_CDT.DIR\DEBUG\DTSIZE.OBJ
C:\USERS\AKRISTMANN\DESKTOP\GRAPHVIZ-CMAKE\BUILD\CMAKE\LIB\CDT\GRAPHVIZ_LIB_CDT.DIR\DEBUG\DTRESTORE.OBJ
C:\USERS\AKRISTMANN\DESKTOP\GRAPHVIZ-CMAKE\BUILD\CMAKE\LIB\CDT\GRAPHVIZ_LIB_CDT.DIR\DEBUG\DTRENEW.OBJ
C:\USERS\AKRISTMANN\DESKTOP\GRAPHVIZ-CMAKE\BUILD\CMAKE\LIB\CDT\GRAPHVIZ_LIB_CDT.DIR\DEBUG\DTOPEN.OBJ
C:\USERS\AKRISTMANN\DESKTOP\GRAPHVIZ-CMAKE\BUILD\CMAKE\LIB\CDT\GRAPHVIZ_LIB_CDT.DIR\DEBUG\DTMETHOD.OBJ
C:\USERS\AKRISTMANN\DESKTOP\GRAPHVIZ-CMAKE\BUILD\CMAKE\LIB\CDT\GRAPHVIZ_LIB_CDT.DIR\DEBUG\DTLIST.OBJ
C:\USERS\AKRISTMANN\DESKTOP\GRAPHVIZ-CMAKE\BUILD\CMAKE\LIB\CDT\GRAPHVIZ_LIB_CDT.DIR\DEBUG\DTHASH.OBJ
C:\USERS\AKRISTMANN\DESKTOP\GRAPHVIZ-CMAKE\BUILD\CMAKE\LIB\CDT\GRAPHVIZ_LIB_CDT.DIR\DEBUG\DTFLATTEN.OBJ
C:\USERS\AKRISTMANN\DESKTOP\GRAPHVIZ-CMAKE\BUILD\CMAKE\LIB\CDT\GRAPHVIZ_LIB_CDT.DIR\DEBUG\DTEXTRACT.OBJ
C:\USERS\AKRISTMANN\DESKTOP\GRAPHVIZ-CMAKE\BUILD\CMAKE\LIB\CDT\GRAPHVIZ_LIB_CDT.DIR\DEBUG\DTDISC.OBJ
C:\USERS\AKRISTMANN\DESKTOP\GRAPHVIZ-CMAKE\BUILD\CMAKE\LIB\CDT\GRAPHVIZ_LIB_CDT.DIR\DEBUG\DTCLOSE.OBJ
C:\USERS\AKRISTMANN\DESKTOP\GRAPHVIZ-CMAKE\BUILD\CMAKE\LIB\CDT\GRAPHVIZ_LIB_CDT.DIR\DEBUG\DTTREE.OBJ
