^C:\USERS\AKRISTMANN\DESKTOP\GRAPHVIZ-CMAKE\LIB\GVC\GVC.C|C:\USERS\AKRISTMANN\DESKTOP\GRAPHVIZ-CMAKE\LIB\GVC\GVCONFIG.C|C:\USERS\AKRISTMANN\DESKTOP\GRAPHVIZ-CMAKE\LIB\GVC\GVCONTEXT.C|C:\USERS\AKRISTMANN\DESKTOP\GRAPHVIZ-CMAKE\LIB\GVC\GVDEVICE.C|C:\USERS\AKRISTMANN\DESKTOP\GRAPHVIZ-CMAKE\LIB\GVC\GVEVENT.C|C:\USERS\AKRISTMANN\DESKTOP\GRAPHVIZ-CMAKE\LIB\GVC\GVJOBS.C|C:\USERS\AKRISTMANN\DESKTOP\GRAPHVIZ-CMAKE\LIB\GVC\GVLAYOUT.C|C:\USERS\AKRISTMANN\DESKTOP\GRAPHVIZ-CMAKE\LIB\GVC\GVLOADIMAGE.C|C:\USERS\AKRISTMANN\DESKTOP\GRAPHVIZ-CMAKE\LIB\GVC\GVPLUGIN.C|C:\USERS\AKRISTMANN\DESKTOP\GRAPHVIZ-CMAKE\LIB\GVC\GVRENDER.C|C:\USERS\AKRISTMANN\DESKTOP\GRAPHVIZ-CMAKE\LIB\GVC\GVTEXTLAYOUT.C|C:\USERS\AKRISTMANN\DESKTOP\GRAPHVIZ-CMAKE\LIB\GVC\GVUSERSHAPE.C
C:\USERS\AKRISTMANN\DESKTOP\GRAPHVIZ-CMAKE\BUILD\CMAKE\LIB\GVC\GRAPHVIZ_LIB_GVC.DIR\DEBUG\GVUSERSHAPE.OBJ
C:\USERS\AKRISTMANN\DESKTOP\GRAPHVIZ-CMAKE\BUILD\CMAKE\LIB\GVC\GRAPHVIZ_LIB_GVC.DIR\DEBUG\GVTEXTLAYOUT.OBJ
C:\USERS\AKRISTMANN\DESKTOP\GRAPHVIZ-CMAKE\BUILD\CMAKE\LIB\GVC\GRAPHVIZ_LIB_GVC.DIR\DEBUG\GVRENDER.OBJ
C:\USERS\AKRISTMANN\DESKTOP\GRAPHVIZ-CMAKE\BUILD\CMAKE\LIB\GVC\GRAPHVIZ_LIB_GVC.DIR\DEBUG\GVPLUGIN.OBJ
C:\USERS\AKRISTMANN\DESKTOP\GRAPHVIZ-CMAKE\BUILD\CMAKE\LIB\GVC\GRAPHVIZ_LIB_GVC.DIR\DEBUG\GVLOADIMAGE.OBJ
C:\USERS\AKRISTMANN\DESKTOP\GRAPHVIZ-CMAKE\BUILD\CMAKE\LIB\GVC\GRAPHVIZ_LIB_GVC.DIR\DEBUG\GVLAYOUT.OBJ
C:\USERS\AKRISTMANN\DESKTOP\GRAPHVIZ-CMAKE\BUILD\CMAKE\LIB\GVC\GRAPHVIZ_LIB_GVC.DIR\DEBUG\GVJOBS.OBJ
C:\USERS\AKRISTMANN\DESKTOP\GRAPHVIZ-CMAKE\BUILD\CMAKE\LIB\GVC\GRAPHVIZ_LIB_GVC.DIR\DEBUG\GVEVENT.OBJ
C:\USERS\AKRISTMANN\DESKTOP\GRAPHVIZ-CMAKE\BUILD\CMAKE\LIB\GVC\GRAPHVIZ_LIB_GVC.DIR\DEBUG\GVDEVICE.OBJ
C:\USERS\AKRISTMANN\DESKTOP\GRAPHVIZ-CMAKE\BUILD\CMAKE\LIB\GVC\GRAPHVIZ_LIB_GVC.DIR\DEBUG\GVCONTEXT.OBJ
C:\USERS\AKRISTMANN\DESKTOP\GRAPHVIZ-CMAKE\BUILD\CMAKE\LIB\GVC\GRAPHVIZ_LIB_GVC.DIR\DEBUG\GVCONFIG.OBJ
C:\USERS\AKRISTMANN\DESKTOP\GRAPHVIZ-CMAKE\BUILD\CMAKE\LIB\GVC\GRAPHVIZ_LIB_GVC.DIR\DEBUG\GVC.OBJ
